EESchema Schematic File Version 4
LIBS:mopki_base_1x1-cache
EELAYER 26 0
EELAYER END
$Descr A4 11693 8268
encoding utf-8
Sheet 1 1
Title ""
Date ""
Rev ""
Comp ""
Comment1 ""
Comment2 ""
Comment3 ""
Comment4 ""
$EndDescr
$Comp
L power:GND #PWR03
U 1 1 5B1951F8
P 11100 6300
F 0 "#PWR03" H 11100 6050 50  0001 C CNN
F 1 "GND" H 11105 6127 50  0000 C CNN
F 2 "" H 11100 6300 50  0001 C CNN
F 3 "" H 11100 6300 50  0001 C CNN
	1    11100 6300
	1    0    0    -1  
$EndComp
$Comp
L power:VCC #PWR02
U 1 1 5B1952DF
P 10750 6300
F 0 "#PWR02" H 10750 6150 50  0001 C CNN
F 1 "VCC" H 10767 6473 50  0000 C CNN
F 2 "" H 10750 6300 50  0001 C CNN
F 3 "" H 10750 6300 50  0001 C CNN
	1    10750 6300
	1    0    0    -1  
$EndComp
$Comp
L power:PWR_FLAG #FLG02
U 1 1 5B19534E
P 11100 6300
F 0 "#FLG02" H 11100 6375 50  0001 C CNN
F 1 "PWR_FLAG" H 11100 6474 50  0000 C CNN
F 2 "" H 11100 6300 50  0001 C CNN
F 3 "~" H 11100 6300 50  0001 C CNN
	1    11100 6300
	1    0    0    -1  
$EndComp
$Comp
L power:PWR_FLAG #FLG01
U 1 1 5B195370
P 10750 6300
F 0 "#FLG01" H 10750 6375 50  0001 C CNN
F 1 "PWR_FLAG" H 10750 6473 50  0000 C CNN
F 2 "" H 10750 6300 50  0001 C CNN
F 3 "~" H 10750 6300 50  0001 C CNN
	1    10750 6300
	-1   0    0    1   
$EndComp
$Comp
L Connector_Generic:Conn_02x05_Odd_Even J1
U 1 1 5B195462
P 1100 1350
F 0 "J1" H 1150 1800 50  0000 C CNN
F 1 "DataA_West" H 1150 1700 50  0000 C CNN
F 2 "Connector_PinHeader_2.54mm:PinHeader_2x05_P2.54mm_Vertical" H 1100 1350 50  0001 C CNN
F 3 "~" H 1100 1350 50  0001 C CNN
	1    1100 1350
	1    0    0    -1  
$EndComp
Text GLabel 1400 1150 2    50   Input ~ 0
GND
Text GLabel 900  1150 0    50   Input ~ 0
VCC
Text Label 900  1250 2    50   ~ 0
Data0
Text Label 1400 1250 0    50   ~ 0
Data1
Text Label 900  1350 2    50   ~ 0
Data2
Text Label 1400 1350 0    50   ~ 0
Data3
Text Label 900  1450 2    50   ~ 0
Data4
Text Label 1400 1450 0    50   ~ 0
Data5
Text Label 900  1550 2    50   ~ 0
Data6
Text Label 1400 1550 0    50   ~ 0
Data7
$Comp
L Connector_Generic:Conn_02x05_Odd_Even J2
U 1 1 5B3E7340
P 1100 2150
F 0 "J2" H 1150 2600 50  0000 C CNN
F 1 "DataA_East" H 1150 2500 50  0000 C CNN
F 2 "Connector_PinHeader_2.54mm:PinHeader_2x05_P2.54mm_Vertical" H 1100 2150 50  0001 C CNN
F 3 "~" H 1100 2150 50  0001 C CNN
	1    1100 2150
	1    0    0    -1  
$EndComp
Text GLabel 1400 1950 2    50   Input ~ 0
GND
Text GLabel 900  1950 0    50   Input ~ 0
VCC
Text Label 900  2050 2    50   ~ 0
Data0
Text Label 1400 2050 0    50   ~ 0
Data1
Text Label 900  2150 2    50   ~ 0
Data2
Text Label 1400 2150 0    50   ~ 0
Data3
Text Label 900  2250 2    50   ~ 0
Data4
Text Label 1400 2250 0    50   ~ 0
Data5
Text Label 900  2350 2    50   ~ 0
Data6
Text Label 1400 2350 0    50   ~ 0
Data7
$Comp
L Device:LED D1
U 1 1 5B3E73C2
P 3000 1150
F 0 "D1" H 2992 895 50  0000 C CNN
F 1 "LED" H 2992 986 50  0000 C CNN
F 2 "LED_THT:LED_D3.0mm" H 3000 1150 50  0001 C CNN
F 3 "~" H 3000 1150 50  0001 C CNN
	1    3000 1150
	-1   0    0    1   
$EndComp
$Comp
L Device:LED D2
U 1 1 5B3E7553
P 3000 1350
F 0 "D2" H 2992 1095 50  0000 C CNN
F 1 "LED" H 2992 1186 50  0000 C CNN
F 2 "LED_THT:LED_D3.0mm" H 3000 1350 50  0001 C CNN
F 3 "~" H 3000 1350 50  0001 C CNN
	1    3000 1350
	-1   0    0    1   
$EndComp
$Comp
L Device:LED D3
U 1 1 5B3E7583
P 3000 1550
F 0 "D3" H 2992 1295 50  0000 C CNN
F 1 "LED" H 2992 1386 50  0000 C CNN
F 2 "LED_THT:LED_D3.0mm" H 3000 1550 50  0001 C CNN
F 3 "~" H 3000 1550 50  0001 C CNN
	1    3000 1550
	-1   0    0    1   
$EndComp
$Comp
L Device:LED D4
U 1 1 5B3E75B5
P 3000 1750
F 0 "D4" H 2992 1495 50  0000 C CNN
F 1 "LED" H 2992 1586 50  0000 C CNN
F 2 "LED_THT:LED_D3.0mm" H 3000 1750 50  0001 C CNN
F 3 "~" H 3000 1750 50  0001 C CNN
	1    3000 1750
	-1   0    0    1   
$EndComp
$Comp
L Device:LED D5
U 1 1 5B3E7619
P 3000 1950
F 0 "D5" H 2992 1695 50  0000 C CNN
F 1 "LED" H 2992 1786 50  0000 C CNN
F 2 "LED_THT:LED_D3.0mm" H 3000 1950 50  0001 C CNN
F 3 "~" H 3000 1950 50  0001 C CNN
	1    3000 1950
	-1   0    0    1   
$EndComp
$Comp
L Device:LED D6
U 1 1 5B3E767B
P 3000 2150
F 0 "D6" H 2992 1895 50  0000 C CNN
F 1 "LED" H 2992 1986 50  0000 C CNN
F 2 "LED_THT:LED_D3.0mm" H 3000 2150 50  0001 C CNN
F 3 "~" H 3000 2150 50  0001 C CNN
	1    3000 2150
	-1   0    0    1   
$EndComp
$Comp
L Device:LED D7
U 1 1 5B3E76AF
P 3000 2350
F 0 "D7" H 2992 2095 50  0000 C CNN
F 1 "LED" H 2992 2186 50  0000 C CNN
F 2 "LED_THT:LED_D3.0mm" H 3000 2350 50  0001 C CNN
F 3 "~" H 3000 2350 50  0001 C CNN
	1    3000 2350
	-1   0    0    1   
$EndComp
$Comp
L Device:LED D8
U 1 1 5B3E76ED
P 3000 2550
F 0 "D8" H 2992 2295 50  0000 C CNN
F 1 "LED" H 2992 2386 50  0000 C CNN
F 2 "LED_THT:LED_D3.0mm" H 3000 2550 50  0001 C CNN
F 3 "~" H 3000 2550 50  0001 C CNN
	1    3000 2550
	-1   0    0    1   
$EndComp
Text Label 2850 1150 2    50   ~ 0
Data0
Text Label 2850 1350 2    50   ~ 0
Data1
Text Label 2850 1550 2    50   ~ 0
Data2
Text Label 2850 1750 2    50   ~ 0
Data3
Text Label 2850 1950 2    50   ~ 0
Data4
Text Label 2850 2150 2    50   ~ 0
Data5
Text Label 2850 2350 2    50   ~ 0
Data6
Text Label 2850 2550 2    50   ~ 0
Data7
$Comp
L Connector_Generic:Conn_02x05_Odd_Even J3
U 1 1 5B3E8C4E
P 1150 3250
F 0 "J3" H 1200 3700 50  0000 C CNN
F 1 "DataB_West" H 1200 3600 50  0000 C CNN
F 2 "Connector_PinHeader_2.54mm:PinHeader_2x05_P2.54mm_Vertical" H 1150 3250 50  0001 C CNN
F 3 "~" H 1150 3250 50  0001 C CNN
	1    1150 3250
	1    0    0    -1  
$EndComp
Text GLabel 1450 3050 2    50   Input ~ 0
GND
Text GLabel 950  3050 0    50   Input ~ 0
VCC
$Comp
L Connector_Generic:Conn_02x05_Odd_Even J4
U 1 1 5B3E8C5F
P 1150 4050
F 0 "J4" H 1200 4500 50  0000 C CNN
F 1 "DataB_East" H 1200 4400 50  0000 C CNN
F 2 "Connector_PinHeader_2.54mm:PinHeader_2x05_P2.54mm_Vertical" H 1150 4050 50  0001 C CNN
F 3 "~" H 1150 4050 50  0001 C CNN
	1    1150 4050
	1    0    0    -1  
$EndComp
Text GLabel 1450 3850 2    50   Input ~ 0
GND
Text GLabel 950  3850 0    50   Input ~ 0
VCC
$Comp
L Device:LED D9
U 1 1 5B3E8C70
P 3050 3050
F 0 "D9" H 3042 2795 50  0000 C CNN
F 1 "LED" H 3042 2886 50  0000 C CNN
F 2 "LED_THT:LED_D3.0mm" H 3050 3050 50  0001 C CNN
F 3 "~" H 3050 3050 50  0001 C CNN
	1    3050 3050
	-1   0    0    1   
$EndComp
$Comp
L Device:LED D10
U 1 1 5B3E8C7E
P 3050 3250
F 0 "D10" H 3042 2995 50  0000 C CNN
F 1 "LED" H 3042 3086 50  0000 C CNN
F 2 "LED_THT:LED_D3.0mm" H 3050 3250 50  0001 C CNN
F 3 "~" H 3050 3250 50  0001 C CNN
	1    3050 3250
	-1   0    0    1   
$EndComp
$Comp
L Device:LED D11
U 1 1 5B3E8C8C
P 3050 3450
F 0 "D11" H 3042 3195 50  0000 C CNN
F 1 "LED" H 3042 3286 50  0000 C CNN
F 2 "LED_THT:LED_D3.0mm" H 3050 3450 50  0001 C CNN
F 3 "~" H 3050 3450 50  0001 C CNN
	1    3050 3450
	-1   0    0    1   
$EndComp
$Comp
L Device:LED D12
U 1 1 5B3E8C9A
P 3050 3650
F 0 "D12" H 3042 3395 50  0000 C CNN
F 1 "LED" H 3042 3486 50  0000 C CNN
F 2 "LED_THT:LED_D3.0mm" H 3050 3650 50  0001 C CNN
F 3 "~" H 3050 3650 50  0001 C CNN
	1    3050 3650
	-1   0    0    1   
$EndComp
$Comp
L Device:LED D13
U 1 1 5B3E8CA8
P 3050 3850
F 0 "D13" H 3042 3595 50  0000 C CNN
F 1 "LED" H 3042 3686 50  0000 C CNN
F 2 "LED_THT:LED_D3.0mm" H 3050 3850 50  0001 C CNN
F 3 "~" H 3050 3850 50  0001 C CNN
	1    3050 3850
	-1   0    0    1   
$EndComp
$Comp
L Device:LED D14
U 1 1 5B3E8CB6
P 3050 4050
F 0 "D14" H 3042 3795 50  0000 C CNN
F 1 "LED" H 3042 3886 50  0000 C CNN
F 2 "LED_THT:LED_D3.0mm" H 3050 4050 50  0001 C CNN
F 3 "~" H 3050 4050 50  0001 C CNN
	1    3050 4050
	-1   0    0    1   
$EndComp
$Comp
L Device:LED D15
U 1 1 5B3E8CC4
P 3050 4250
F 0 "D15" H 3042 3995 50  0000 C CNN
F 1 "LED" H 3042 4086 50  0000 C CNN
F 2 "LED_THT:LED_D3.0mm" H 3050 4250 50  0001 C CNN
F 3 "~" H 3050 4250 50  0001 C CNN
	1    3050 4250
	-1   0    0    1   
$EndComp
$Comp
L Device:LED D16
U 1 1 5B3E8CD2
P 3050 4450
F 0 "D16" H 3042 4195 50  0000 C CNN
F 1 "LED" H 3042 4286 50  0000 C CNN
F 2 "LED_THT:LED_D3.0mm" H 3050 4450 50  0001 C CNN
F 3 "~" H 3050 4450 50  0001 C CNN
	1    3050 4450
	-1   0    0    1   
$EndComp
Text Label 950  3150 2    50   ~ 0
DataB0
Text Label 1450 3150 0    50   ~ 0
DataB1
Text Label 950  3250 2    50   ~ 0
DataB2
Text Label 1450 3250 0    50   ~ 0
DataB3
Text Label 950  3350 2    50   ~ 0
DataB4
Text Label 1450 3350 0    50   ~ 0
DataB5
Text Label 950  3450 2    50   ~ 0
DataB6
Text Label 1450 3450 0    50   ~ 0
DataB7
Text Label 950  3950 2    50   ~ 0
DataB0
Text Label 950  4050 2    50   ~ 0
DataB2
Text Label 950  4150 2    50   ~ 0
DataB4
Text Label 950  4250 2    50   ~ 0
DataB6
Text Label 1450 3950 0    50   ~ 0
DataB1
Text Label 1450 4050 0    50   ~ 0
DataB3
Text Label 1450 4150 0    50   ~ 0
DataB5
Text Label 1450 4250 0    50   ~ 0
DataB7
Text Label 2900 3050 2    50   ~ 0
DataB0
Text Label 2900 3250 2    50   ~ 0
DataB1
Text Label 2900 3450 2    50   ~ 0
DataB2
Text Label 2900 3650 2    50   ~ 0
DataB3
Text Label 2900 3850 2    50   ~ 0
DataB4
Text Label 2900 4050 2    50   ~ 0
DataB5
Text Label 2900 4250 2    50   ~ 0
DataB6
Text Label 2900 4450 2    50   ~ 0
DataB7
$Comp
L power:GND #PWR0101
U 1 1 5B3F6FBB
P 3200 3050
F 0 "#PWR0101" H 3200 2800 50  0001 C CNN
F 1 "GND" V 3205 2922 50  0000 R CNN
F 2 "" H 3200 3050 50  0001 C CNN
F 3 "" H 3200 3050 50  0001 C CNN
	1    3200 3050
	0    -1   -1   0   
$EndComp
$Comp
L power:GND #PWR0102
U 1 1 5B3F7055
P 3200 3250
F 0 "#PWR0102" H 3200 3000 50  0001 C CNN
F 1 "GND" V 3205 3122 50  0000 R CNN
F 2 "" H 3200 3250 50  0001 C CNN
F 3 "" H 3200 3250 50  0001 C CNN
	1    3200 3250
	0    -1   -1   0   
$EndComp
$Comp
L power:GND #PWR0103
U 1 1 5B3F7166
P 3200 3450
F 0 "#PWR0103" H 3200 3200 50  0001 C CNN
F 1 "GND" V 3205 3322 50  0000 R CNN
F 2 "" H 3200 3450 50  0001 C CNN
F 3 "" H 3200 3450 50  0001 C CNN
	1    3200 3450
	0    -1   -1   0   
$EndComp
$Comp
L power:GND #PWR0104
U 1 1 5B3F7180
P 3200 3650
F 0 "#PWR0104" H 3200 3400 50  0001 C CNN
F 1 "GND" V 3205 3522 50  0000 R CNN
F 2 "" H 3200 3650 50  0001 C CNN
F 3 "" H 3200 3650 50  0001 C CNN
	1    3200 3650
	0    -1   -1   0   
$EndComp
$Comp
L power:GND #PWR0105
U 1 1 5B3F719A
P 3200 3850
F 0 "#PWR0105" H 3200 3600 50  0001 C CNN
F 1 "GND" V 3205 3722 50  0000 R CNN
F 2 "" H 3200 3850 50  0001 C CNN
F 3 "" H 3200 3850 50  0001 C CNN
	1    3200 3850
	0    -1   -1   0   
$EndComp
$Comp
L power:GND #PWR0106
U 1 1 5B3F71B4
P 3200 4050
F 0 "#PWR0106" H 3200 3800 50  0001 C CNN
F 1 "GND" V 3205 3922 50  0000 R CNN
F 2 "" H 3200 4050 50  0001 C CNN
F 3 "" H 3200 4050 50  0001 C CNN
	1    3200 4050
	0    -1   -1   0   
$EndComp
$Comp
L power:GND #PWR0107
U 1 1 5B3F71CE
P 3200 4250
F 0 "#PWR0107" H 3200 4000 50  0001 C CNN
F 1 "GND" V 3205 4122 50  0000 R CNN
F 2 "" H 3200 4250 50  0001 C CNN
F 3 "" H 3200 4250 50  0001 C CNN
	1    3200 4250
	0    -1   -1   0   
$EndComp
$Comp
L power:GND #PWR0108
U 1 1 5B3F7238
P 3200 4450
F 0 "#PWR0108" H 3200 4200 50  0001 C CNN
F 1 "GND" V 3205 4322 50  0000 R CNN
F 2 "" H 3200 4450 50  0001 C CNN
F 3 "" H 3200 4450 50  0001 C CNN
	1    3200 4450
	0    -1   -1   0   
$EndComp
$Comp
L power:GND #PWR0109
U 1 1 5B3F75A6
P 3150 2550
F 0 "#PWR0109" H 3150 2300 50  0001 C CNN
F 1 "GND" V 3155 2422 50  0000 R CNN
F 2 "" H 3150 2550 50  0001 C CNN
F 3 "" H 3150 2550 50  0001 C CNN
	1    3150 2550
	0    -1   -1   0   
$EndComp
$Comp
L power:GND #PWR0110
U 1 1 5B3F761C
P 3150 2350
F 0 "#PWR0110" H 3150 2100 50  0001 C CNN
F 1 "GND" V 3155 2222 50  0000 R CNN
F 2 "" H 3150 2350 50  0001 C CNN
F 3 "" H 3150 2350 50  0001 C CNN
	1    3150 2350
	0    -1   -1   0   
$EndComp
$Comp
L power:GND #PWR0111
U 1 1 5B3F7636
P 3150 2150
F 0 "#PWR0111" H 3150 1900 50  0001 C CNN
F 1 "GND" V 3155 2022 50  0000 R CNN
F 2 "" H 3150 2150 50  0001 C CNN
F 3 "" H 3150 2150 50  0001 C CNN
	1    3150 2150
	0    -1   -1   0   
$EndComp
$Comp
L power:GND #PWR0112
U 1 1 5B3F7650
P 3150 1950
F 0 "#PWR0112" H 3150 1700 50  0001 C CNN
F 1 "GND" V 3155 1822 50  0000 R CNN
F 2 "" H 3150 1950 50  0001 C CNN
F 3 "" H 3150 1950 50  0001 C CNN
	1    3150 1950
	0    -1   -1   0   
$EndComp
$Comp
L power:GND #PWR0113
U 1 1 5B3F766A
P 3150 1750
F 0 "#PWR0113" H 3150 1500 50  0001 C CNN
F 1 "GND" V 3155 1622 50  0000 R CNN
F 2 "" H 3150 1750 50  0001 C CNN
F 3 "" H 3150 1750 50  0001 C CNN
	1    3150 1750
	0    -1   -1   0   
$EndComp
$Comp
L power:GND #PWR0114
U 1 1 5B3F76AC
P 3150 1550
F 0 "#PWR0114" H 3150 1300 50  0001 C CNN
F 1 "GND" V 3155 1422 50  0000 R CNN
F 2 "" H 3150 1550 50  0001 C CNN
F 3 "" H 3150 1550 50  0001 C CNN
	1    3150 1550
	0    -1   -1   0   
$EndComp
$Comp
L power:GND #PWR0115
U 1 1 5B3F76C6
P 3150 1350
F 0 "#PWR0115" H 3150 1100 50  0001 C CNN
F 1 "GND" V 3155 1222 50  0000 R CNN
F 2 "" H 3150 1350 50  0001 C CNN
F 3 "" H 3150 1350 50  0001 C CNN
	1    3150 1350
	0    -1   -1   0   
$EndComp
$Comp
L power:GND #PWR0116
U 1 1 5B3F76E0
P 3150 1150
F 0 "#PWR0116" H 3150 900 50  0001 C CNN
F 1 "GND" V 3155 1022 50  0000 R CNN
F 2 "" H 3150 1150 50  0001 C CNN
F 3 "" H 3150 1150 50  0001 C CNN
	1    3150 1150
	0    -1   -1   0   
$EndComp
Text Notes 3600 1400 0    50   ~ 0
Attention: \nUse LEDs with internal resistor, \nsuitable for 5V supply voltage.
$EndSCHEMATC
