(export (version D)
  (design
    (source /home/fredo/masterseminar/mopki/mopki_ram/mopki_ram.sch)
    (date "Do 05 Jul 2018 18:52:29 CEST")
    (tool "Eeschema 5.0.0-rc2-unknown-660aed7~65~ubuntu16.04.1")
    (sheet (number 1) (name /) (tstamps /)
      (title_block
        (title)
        (company)
        (rev)
        (date)
        (source mopki_ram.sch)
        (comment (number 1) (value ""))
        (comment (number 2) (value ""))
        (comment (number 3) (value ""))
        (comment (number 4) (value "")))))
  (components
    (comp (ref U1)
      (value 628128)
      (footprint Package_DIP:DIP-32_W15.24mm)
      (libsource (lib Memory_RAM) (part 628128) (description "RAM 128 Ko"))
      (sheetpath (names /) (tstamps /))
      (tstamp 5B27C733))
    (comp (ref U2)
      (value 74HC04)
      (footprint Package_DIP:DIP-14_W7.62mm)
      (datasheet http://www.nxp.com/documents/data_sheet/74HC_HCT04.pdf)
      (libsource (lib 74xx) (part 74HC04) (description "hex inverter"))
      (sheetpath (names /) (tstamps /))
      (tstamp 5B2D6BC1))
    (comp (ref C1)
      (value 100n)
      (footprint Capacitor_THT:C_Disc_D10.0mm_W2.5mm_P5.00mm)
      (datasheet ~)
      (libsource (lib Device) (part C) (description "Unpolarized capacitor"))
      (sheetpath (names /) (tstamps /))
      (tstamp 5B2D92D7))
    (comp (ref J2)
      (value Address_High)
      (footprint Connector_PinHeader_2.54mm:PinHeader_2x05_P2.54mm_Vertical)
      (datasheet ~)
      (libsource (lib Connector_Generic) (part Conn_02x05_Odd_Even) (description "Generic connector, double row, 02x05, odd/even pin numbering scheme (row 1 odd numbers, row 2 even numbers), script generated (kicad-library-utils/schlib/autogen/connector/)"))
      (sheetpath (names /) (tstamps /))
      (tstamp 5B3623BC))
    (comp (ref J1)
      (value Address_Low)
      (footprint Connector_PinHeader_2.54mm:PinHeader_2x05_P2.54mm_Vertical)
      (datasheet ~)
      (libsource (lib Connector_Generic) (part Conn_02x05_Odd_Even) (description "Generic connector, double row, 02x05, odd/even pin numbering scheme (row 1 odd numbers, row 2 even numbers), script generated (kicad-library-utils/schlib/autogen/connector/)"))
      (sheetpath (names /) (tstamps /))
      (tstamp 5B3627C4))
    (comp (ref J3)
      (value Data_IO)
      (footprint Connector_PinHeader_2.54mm:PinHeader_2x05_P2.54mm_Vertical)
      (datasheet ~)
      (libsource (lib Connector_Generic) (part Conn_02x05_Odd_Even) (description "Generic connector, double row, 02x05, odd/even pin numbering scheme (row 1 odd numbers, row 2 even numbers), script generated (kicad-library-utils/schlib/autogen/connector/)"))
      (sheetpath (names /) (tstamps /))
      (tstamp 5B362B6D))
    (comp (ref J4)
      (value Control)
      (footprint Connector_PinHeader_2.54mm:PinHeader_1x04_P2.54mm_Vertical)
      (datasheet ~)
      (libsource (lib Connector) (part Conn_01x04_Male) (description "Generic connector, single row, 01x04, script generated (kicad-library-utils/schlib/autogen/connector/)"))
      (sheetpath (names /) (tstamps /))
      (tstamp 5B36317B)))
  (libparts
    (libpart (lib 74xx) (part 74HCT04)
      (aliases
        (alias 74HC14)
        (alias 74HC04)
        (alias 74LS14))
      (description "hex inverter")
      (docs http://www.nxp.com/documents/data_sheet/74HC_HCT04.pdf)
      (footprints
        (fp DIP?14*))
      (fields
        (field (name Reference) U)
        (field (name Value) 74HCT04))
      (pins
        (pin (num 1) (name ~) (type input))
        (pin (num 2) (name ~) (type output))
        (pin (num 3) (name ~) (type input))
        (pin (num 4) (name ~) (type output))
        (pin (num 5) (name ~) (type input))
        (pin (num 6) (name ~) (type output))
        (pin (num 7) (name GND) (type power_in))
        (pin (num 8) (name ~) (type output))
        (pin (num 9) (name ~) (type input))
        (pin (num 10) (name ~) (type output))
        (pin (num 11) (name ~) (type input))
        (pin (num 12) (name ~) (type output))
        (pin (num 13) (name ~) (type input))
        (pin (num 14) (name VCC) (type power_in))))
    (libpart (lib Connector) (part Conn_01x04_Male)
      (description "Generic connector, single row, 01x04, script generated (kicad-library-utils/schlib/autogen/connector/)")
      (docs ~)
      (footprints
        (fp Connector*:*_1x??_*))
      (fields
        (field (name Reference) J)
        (field (name Value) Conn_01x04_Male))
      (pins
        (pin (num 1) (name Pin_1) (type passive))
        (pin (num 2) (name Pin_2) (type passive))
        (pin (num 3) (name Pin_3) (type passive))
        (pin (num 4) (name Pin_4) (type passive))))
    (libpart (lib Connector_Generic) (part Conn_02x05_Odd_Even)
      (description "Generic connector, double row, 02x05, odd/even pin numbering scheme (row 1 odd numbers, row 2 even numbers), script generated (kicad-library-utils/schlib/autogen/connector/)")
      (docs ~)
      (footprints
        (fp Connector*:*_2x??_*))
      (fields
        (field (name Reference) J)
        (field (name Value) Conn_02x05_Odd_Even))
      (pins
        (pin (num 1) (name Pin_1) (type passive))
        (pin (num 2) (name Pin_2) (type passive))
        (pin (num 3) (name Pin_3) (type passive))
        (pin (num 4) (name Pin_4) (type passive))
        (pin (num 5) (name Pin_5) (type passive))
        (pin (num 6) (name Pin_6) (type passive))
        (pin (num 7) (name Pin_7) (type passive))
        (pin (num 8) (name Pin_8) (type passive))
        (pin (num 9) (name Pin_9) (type passive))
        (pin (num 10) (name Pin_10) (type passive))))
    (libpart (lib Device) (part C)
      (description "Unpolarized capacitor")
      (docs ~)
      (footprints
        (fp C_*))
      (fields
        (field (name Reference) C)
        (field (name Value) C))
      (pins
        (pin (num 1) (name ~) (type passive))
        (pin (num 2) (name ~) (type passive))))
    (libpart (lib Memory_RAM) (part 628128)
      (description "RAM 128 Ko")
      (fields
        (field (name Reference) U)
        (field (name Value) 628128))
      (pins
        (pin (num 2) (name A16) (type input))
        (pin (num 3) (name A14) (type input))
        (pin (num 4) (name A12) (type input))
        (pin (num 5) (name A7) (type input))
        (pin (num 6) (name A6) (type input))
        (pin (num 7) (name A5) (type input))
        (pin (num 8) (name A4) (type input))
        (pin (num 9) (name A3) (type input))
        (pin (num 10) (name A2) (type input))
        (pin (num 11) (name A1) (type input))
        (pin (num 12) (name A0) (type input))
        (pin (num 13) (name Q0) (type 3state))
        (pin (num 14) (name Q1) (type 3state))
        (pin (num 15) (name Q2) (type 3state))
        (pin (num 16) (name GND) (type power_in))
        (pin (num 17) (name Q3) (type 3state))
        (pin (num 18) (name Q4) (type 3state))
        (pin (num 19) (name Q5) (type 3state))
        (pin (num 20) (name Q6) (type 3state))
        (pin (num 21) (name Q7) (type 3state))
        (pin (num 22) (name CS1) (type input))
        (pin (num 23) (name A10) (type input))
        (pin (num 24) (name OE) (type input))
        (pin (num 25) (name A11) (type input))
        (pin (num 26) (name A9) (type input))
        (pin (num 27) (name A8) (type input))
        (pin (num 28) (name A13) (type input))
        (pin (num 29) (name WR) (type input))
        (pin (num 30) (name CS2) (type input))
        (pin (num 31) (name A15) (type input))
        (pin (num 32) (name VCC) (type power_in)))))
  (libraries
    (library (logical 74xx)
      (uri /usr/share/kicad/library/74xx.lib))
    (library (logical Connector)
      (uri /usr/share/kicad/library/Connector.lib))
    (library (logical Connector_Generic)
      (uri /usr/share/kicad/library/Connector_Generic.lib))
    (library (logical Device)
      (uri /usr/share/kicad/library/Device.lib))
    (library (logical Memory_RAM)
      (uri /usr/share/kicad/library/Memory_RAM.lib)))
  (nets
    (net (code 1) (name VCC)
      (node (ref J3) (pin 1))
      (node (ref C1) (pin 1))
      (node (ref J2) (pin 1))
      (node (ref J1) (pin 1))
      (node (ref U2) (pin 14))
      (node (ref U1) (pin 32)))
    (net (code 2) (name /-CE)
      (node (ref U1) (pin 22))
      (node (ref U2) (pin 2)))
    (net (code 3) (name "Net-(U2-Pad3)")
      (node (ref U2) (pin 3)))
    (net (code 4) (name "Net-(U2-Pad4)")
      (node (ref U2) (pin 4)))
    (net (code 5) (name "Net-(U2-Pad5)")
      (node (ref U2) (pin 5)))
    (net (code 6) (name "Net-(U2-Pad6)")
      (node (ref U2) (pin 6)))
    (net (code 7) (name /-OE)
      (node (ref U2) (pin 8))
      (node (ref U1) (pin 24)))
    (net (code 8) (name /-IE)
      (node (ref U2) (pin 10))
      (node (ref U1) (pin 29)))
    (net (code 9) (name "Net-(U2-Pad12)")
      (node (ref U2) (pin 12)))
    (net (code 10) (name "Net-(U2-Pad13)")
      (node (ref U2) (pin 13)))
    (net (code 11) (name GND)
      (node (ref U2) (pin 7))
      (node (ref J3) (pin 2))
      (node (ref C1) (pin 2))
      (node (ref U1) (pin 16))
      (node (ref J2) (pin 2))
      (node (ref J1) (pin 2)))
    (net (code 12) (name /CE)
      (node (ref U2) (pin 1))
      (node (ref U1) (pin 30))
      (node (ref J4) (pin 2)))
    (net (code 13) (name /Data4)
      (node (ref U1) (pin 18))
      (node (ref J3) (pin 7)))
    (net (code 14) (name /Addr_Low3)
      (node (ref U1) (pin 26))
      (node (ref J1) (pin 6)))
    (net (code 15) (name /Addr_Low4)
      (node (ref U1) (pin 25))
      (node (ref J1) (pin 7)))
    (net (code 16) (name /Addr_Low5)
      (node (ref J1) (pin 8))
      (node (ref U1) (pin 23)))
    (net (code 17) (name /Addr_Low6)
      (node (ref J1) (pin 9))
      (node (ref U1) (pin 3)))
    (net (code 18) (name /Data7)
      (node (ref U1) (pin 21))
      (node (ref J3) (pin 10)))
    (net (code 19) (name /Addr_Low2)
      (node (ref U1) (pin 27))
      (node (ref J1) (pin 5)))
    (net (code 20) (name /Data5)
      (node (ref U1) (pin 19))
      (node (ref J3) (pin 8)))
    (net (code 21) (name /Data6)
      (node (ref J3) (pin 9))
      (node (ref U1) (pin 20)))
    (net (code 22) (name /Page_Select)
      (node (ref U1) (pin 12))
      (node (ref J4) (pin 1)))
    (net (code 23) (name /OE)
      (node (ref J4) (pin 3))
      (node (ref U2) (pin 9)))
    (net (code 24) (name /IE)
      (node (ref J4) (pin 4))
      (node (ref U2) (pin 11)))
    (net (code 25) (name /Addr_High1)
      (node (ref U1) (pin 5))
      (node (ref J2) (pin 4)))
    (net (code 26) (name /Addr_High7)
      (node (ref U1) (pin 11))
      (node (ref J2) (pin 10)))
    (net (code 27) (name /Addr_High0)
      (node (ref U1) (pin 4))
      (node (ref J2) (pin 3)))
    (net (code 28) (name /Addr_High2)
      (node (ref J2) (pin 5))
      (node (ref U1) (pin 6)))
    (net (code 29) (name /Addr_High3)
      (node (ref J2) (pin 6))
      (node (ref U1) (pin 7)))
    (net (code 30) (name /Addr_High4)
      (node (ref U1) (pin 8))
      (node (ref J2) (pin 7)))
    (net (code 31) (name /Addr_High5)
      (node (ref J2) (pin 8))
      (node (ref U1) (pin 9)))
    (net (code 32) (name /Addr_High6)
      (node (ref J2) (pin 9))
      (node (ref U1) (pin 10)))
    (net (code 33) (name /Addr_Low7)
      (node (ref J1) (pin 10))
      (node (ref U1) (pin 2)))
    (net (code 34) (name /Addr_Low0)
      (node (ref J1) (pin 3))
      (node (ref U1) (pin 31)))
    (net (code 35) (name /Addr_Low1)
      (node (ref J1) (pin 4))
      (node (ref U1) (pin 28)))
    (net (code 36) (name /Data0)
      (node (ref U1) (pin 13))
      (node (ref J3) (pin 3)))
    (net (code 37) (name /Data1)
      (node (ref U1) (pin 14))
      (node (ref J3) (pin 4)))
    (net (code 38) (name /Data2)
      (node (ref U1) (pin 15))
      (node (ref J3) (pin 5)))
    (net (code 39) (name /Data3)
      (node (ref J3) (pin 6))
      (node (ref U1) (pin 17)))))