EESchema Schematic File Version 4
LIBS:mopki_register-cache
EELAYER 26 0
EELAYER END
$Descr A4 11693 8268
encoding utf-8
Sheet 1 1
Title ""
Date ""
Rev ""
Comp ""
Comment1 ""
Comment2 ""
Comment3 ""
Comment4 ""
$EndDescr
$Comp
L power:GND #PWR08
U 1 1 5B339DA5
P 11100 6300
F 0 "#PWR08" H 11100 6050 50  0001 C CNN
F 1 "GND" H 11105 6127 50  0000 C CNN
F 2 "" H 11100 6300 50  0001 C CNN
F 3 "" H 11100 6300 50  0001 C CNN
	1    11100 6300
	1    0    0    -1  
$EndComp
$Comp
L power:VCC #PWR06
U 1 1 5B339DA6
P 10750 6300
F 0 "#PWR06" H 10750 6150 50  0001 C CNN
F 1 "VCC" H 10767 6473 50  0000 C CNN
F 2 "" H 10750 6300 50  0001 C CNN
F 3 "" H 10750 6300 50  0001 C CNN
	1    10750 6300
	1    0    0    -1  
$EndComp
$Comp
L power:PWR_FLAG #FLG04
U 1 1 5B339DA7
P 11100 6300
F 0 "#FLG04" H 11100 6375 50  0001 C CNN
F 1 "PWR_FLAG" H 11100 6474 50  0000 C CNN
F 2 "" H 11100 6300 50  0001 C CNN
F 3 "~" H 11100 6300 50  0001 C CNN
	1    11100 6300
	1    0    0    -1  
$EndComp
$Comp
L power:PWR_FLAG #FLG02
U 1 1 5B339DA8
P 10750 6300
F 0 "#FLG02" H 10750 6375 50  0001 C CNN
F 1 "PWR_FLAG" H 10750 6473 50  0000 C CNN
F 2 "" H 10750 6300 50  0001 C CNN
F 3 "~" H 10750 6300 50  0001 C CNN
	1    10750 6300
	-1   0    0    1   
$EndComp
Text Label 1200 3000 0    50   ~ 0
Clock
Text Label 1200 2900 0    50   ~ 0
IE
Text Label 1200 2800 0    50   ~ 0
OE
Text Label 1200 2700 0    50   ~ 0
Reset
$Comp
L 74xx:74LS173 U1
U 1 1 5B195B2D
P 4800 3250
F 0 "U1" H 4550 4000 50  0000 C CNN
F 1 "74LS173" H 5050 4000 50  0000 C CNN
F 2 "Package_DIP:DIP-16_W7.62mm" H 4800 3250 50  0001 C CNN
F 3 "http://www.ti.com/lit/gpn/sn74LS173" H 4800 3250 50  0001 C CNN
	1    4800 3250
	1    0    0    -1  
$EndComp
$Comp
L 74xx:74LS173 U2
U 1 1 5B195CA9
P 8200 3300
F 0 "U2" H 8000 4050 50  0000 C CNN
F 1 "74LS173" H 8400 4050 50  0000 C CNN
F 2 "Package_DIP:DIP-16_W7.62mm" H 8200 3300 50  0001 C CNN
F 3 "http://www.ti.com/lit/gpn/sn74LS173" H 8200 3300 50  0001 C CNN
	1    8200 3300
	1    0    0    -1  
$EndComp
Text Label 4300 2650 2    50   ~ 0
DataIn0
Text Label 4300 2750 2    50   ~ 0
DataIn1
Text Label 4300 2850 2    50   ~ 0
DataIn2
Text Label 4300 2950 2    50   ~ 0
DataIn3
Text Label 7700 2700 2    50   ~ 0
DataIn4
Text Label 7700 2800 2    50   ~ 0
DataIn5
Text Label 7700 2900 2    50   ~ 0
DataIn6
Text Label 7700 3000 2    50   ~ 0
DataIn7
Text Label 5300 2650 0    50   ~ 0
DataOut0
Text Label 5300 2750 0    50   ~ 0
DataOut1
Text Label 5300 2850 0    50   ~ 0
DataOut2
Text Label 5300 2950 0    50   ~ 0
DataOut3
Text Label 8700 2700 0    50   ~ 0
DataOut4
Text Label 8700 2800 0    50   ~ 0
DataOut5
Text Label 8700 2900 0    50   ~ 0
DataOut6
Text Label 8700 3000 0    50   ~ 0
DataOut7
Text Label 4300 3150 2    50   ~ 0
-OE
Text Label 4300 3250 2    50   ~ 0
-OE
Text Label 7700 3200 2    50   ~ 0
-OE
Text Label 7700 3300 2    50   ~ 0
-OE
Text Label 4300 3450 2    50   ~ 0
-IE
Text Label 4300 3550 2    50   ~ 0
-IE
Text Label 7700 3500 2    50   ~ 0
-IE
Text Label 7700 3600 2    50   ~ 0
-IE
Text Label 4300 3650 2    50   ~ 0
Clock
Text Label 7700 3700 2    50   ~ 0
Clock
Text Label 4300 3850 2    50   ~ 0
Reset
Text Label 7700 3900 2    50   ~ 0
Reset
$Comp
L power:VCC #PWR02
U 1 1 5B1961EC
P 8200 2400
F 0 "#PWR02" H 8200 2250 50  0001 C CNN
F 1 "VCC" H 8217 2573 50  0000 C CNN
F 2 "" H 8200 2400 50  0001 C CNN
F 3 "" H 8200 2400 50  0001 C CNN
	1    8200 2400
	1    0    0    -1  
$EndComp
$Comp
L power:VCC #PWR01
U 1 1 5B196277
P 4800 2350
F 0 "#PWR01" H 4800 2200 50  0001 C CNN
F 1 "VCC" H 4817 2523 50  0000 C CNN
F 2 "" H 4800 2350 50  0001 C CNN
F 3 "" H 4800 2350 50  0001 C CNN
	1    4800 2350
	1    0    0    -1  
$EndComp
$Comp
L power:GND #PWR03
U 1 1 5B196318
P 4800 4150
F 0 "#PWR03" H 4800 3900 50  0001 C CNN
F 1 "GND" H 4805 3977 50  0000 C CNN
F 2 "" H 4800 4150 50  0001 C CNN
F 3 "" H 4800 4150 50  0001 C CNN
	1    4800 4150
	1    0    0    -1  
$EndComp
$Comp
L power:GND #PWR04
U 1 1 5B196367
P 8200 4200
F 0 "#PWR04" H 8200 3950 50  0001 C CNN
F 1 "GND" H 8205 4027 50  0000 C CNN
F 2 "" H 8200 4200 50  0001 C CNN
F 3 "" H 8200 4200 50  0001 C CNN
	1    8200 4200
	1    0    0    -1  
$EndComp
$Comp
L power:GND #PWR07
U 1 1 5B1951F8
P 11100 6300
F 0 "#PWR07" H 11100 6050 50  0001 C CNN
F 1 "GND" H 11105 6127 50  0000 C CNN
F 2 "" H 11100 6300 50  0001 C CNN
F 3 "" H 11100 6300 50  0001 C CNN
	1    11100 6300
	1    0    0    -1  
$EndComp
$Comp
L power:VCC #PWR05
U 1 1 5B1952DF
P 10750 6300
F 0 "#PWR05" H 10750 6150 50  0001 C CNN
F 1 "VCC" H 10767 6473 50  0000 C CNN
F 2 "" H 10750 6300 50  0001 C CNN
F 3 "" H 10750 6300 50  0001 C CNN
	1    10750 6300
	1    0    0    -1  
$EndComp
$Comp
L power:PWR_FLAG #FLG03
U 1 1 5B19534E
P 11100 6300
F 0 "#FLG03" H 11100 6375 50  0001 C CNN
F 1 "PWR_FLAG" H 11100 6474 50  0000 C CNN
F 2 "" H 11100 6300 50  0001 C CNN
F 3 "~" H 11100 6300 50  0001 C CNN
	1    11100 6300
	1    0    0    -1  
$EndComp
$Comp
L power:PWR_FLAG #FLG01
U 1 1 5B195370
P 10750 6300
F 0 "#FLG01" H 10750 6375 50  0001 C CNN
F 1 "PWR_FLAG" H 10750 6473 50  0000 C CNN
F 2 "" H 10750 6300 50  0001 C CNN
F 3 "~" H 10750 6300 50  0001 C CNN
	1    10750 6300
	-1   0    0    1   
$EndComp
$Comp
L Connector_Generic:Conn_02x05_Odd_Even J1
U 1 1 5B195462
P 1100 1350
F 0 "J1" H 1150 1800 50  0000 C CNN
F 1 "DataIn" H 1150 1700 50  0000 C CNN
F 2 "Connector_PinHeader_2.54mm:PinHeader_2x05_P2.54mm_Vertical" H 1100 1350 50  0001 C CNN
F 3 "~" H 1100 1350 50  0001 C CNN
	1    1100 1350
	1    0    0    -1  
$EndComp
$Comp
L Connector_Generic:Conn_02x05_Odd_Even J2
U 1 1 5B339DAA
P 1100 2100
F 0 "J2" H 1150 2500 50  0000 C CNN
F 1 "DataOut" H 1150 2400 50  0000 C CNN
F 2 "Connector_PinHeader_2.54mm:PinHeader_2x05_P2.54mm_Vertical" H 1100 2100 50  0001 C CNN
F 3 "~" H 1100 2100 50  0001 C CNN
	1    1100 2100
	1    0    0    -1  
$EndComp
Text Label 900  1250 2    50   ~ 0
DataIn0
Text Label 1400 1250 0    50   ~ 0
DataIn1
Text Label 900  1350 2    50   ~ 0
DataIn2
Text Label 1400 1350 0    50   ~ 0
DataIn3
Text Label 900  1450 2    50   ~ 0
DataIn4
Text Label 1400 1450 0    50   ~ 0
DataIn5
Text Label 900  1550 2    50   ~ 0
DataIn6
Text Label 1400 1550 0    50   ~ 0
DataIn7
Text Label 900  2000 2    50   ~ 0
DataOut0
Text Label 1400 2000 0    50   ~ 0
DataOut1
Text Label 900  2100 2    50   ~ 0
DataOut2
Text Label 1400 2100 0    50   ~ 0
DataOut3
Text Label 900  2200 2    50   ~ 0
DataOut4
Text Label 1400 2200 0    50   ~ 0
DataOut5
Text Label 900  2300 2    50   ~ 0
DataOut6
Text Label 1400 2300 0    50   ~ 0
DataOut7
Text GLabel 1400 1150 2    50   Input ~ 0
GND
Text GLabel 900  1150 0    50   Input ~ 0
VCC
Text GLabel 900  1900 0    50   Input ~ 0
VCC
Text GLabel 1400 1900 2    50   Input ~ 0
GND
$Comp
L Connector:Conn_01x04_Male J3
U 1 1 5B339F63
P 1000 2800
F 0 "J3" H 1106 3078 50  0000 C CNN
F 1 "Conn_01x04_Male" H 1106 2987 50  0000 C CNN
F 2 "Connector_PinSocket_2.54mm:PinSocket_1x04_P2.54mm_Vertical" H 1000 2800 50  0001 C CNN
F 3 "~" H 1000 2800 50  0001 C CNN
	1    1000 2800
	1    0    0    -1  
$EndComp
$Comp
L 74xx:74LS04 U3
U 1 1 5B3E42B6
P 2250 4850
F 0 "U3" H 2250 5167 50  0000 C CNN
F 1 "74LS04" H 2250 5076 50  0000 C CNN
F 2 "Package_DIP:DIP-14_W7.62mm" H 2250 4850 50  0001 C CNN
F 3 "http://www.ti.com/lit/gpn/sn74LS04" H 2250 4850 50  0001 C CNN
	1    2250 4850
	1    0    0    -1  
$EndComp
$Comp
L 74xx:74LS04 U3
U 2 1 5B3E4313
P 2250 5050
F 0 "U3" H 2250 5367 50  0000 C CNN
F 1 "74LS04" H 2250 5276 50  0000 C CNN
F 2 "Package_DIP:DIP-14_W7.62mm" H 2250 5050 50  0001 C CNN
F 3 "http://www.ti.com/lit/gpn/sn74LS04" H 2250 5050 50  0001 C CNN
	2    2250 5050
	1    0    0    -1  
$EndComp
$Comp
L 74xx:74LS04 U3
U 3 1 5B3E437B
P 2250 5250
F 0 "U3" H 2250 5567 50  0000 C CNN
F 1 "74LS04" H 2250 5476 50  0000 C CNN
F 2 "Package_DIP:DIP-14_W7.62mm" H 2250 5250 50  0001 C CNN
F 3 "http://www.ti.com/lit/gpn/sn74LS04" H 2250 5250 50  0001 C CNN
	3    2250 5250
	1    0    0    -1  
$EndComp
$Comp
L 74xx:74LS04 U3
U 4 1 5B3E43D2
P 2250 5450
F 0 "U3" H 2250 5767 50  0000 C CNN
F 1 "74LS04" H 2250 5676 50  0000 C CNN
F 2 "Package_DIP:DIP-14_W7.62mm" H 2250 5450 50  0001 C CNN
F 3 "http://www.ti.com/lit/gpn/sn74LS04" H 2250 5450 50  0001 C CNN
	4    2250 5450
	1    0    0    -1  
$EndComp
$Comp
L 74xx:74LS04 U3
U 5 1 5B3E4434
P 2250 5650
F 0 "U3" H 2250 5967 50  0000 C CNN
F 1 "74LS04" H 2250 5876 50  0000 C CNN
F 2 "Package_DIP:DIP-14_W7.62mm" H 2250 5650 50  0001 C CNN
F 3 "http://www.ti.com/lit/gpn/sn74LS04" H 2250 5650 50  0001 C CNN
	5    2250 5650
	1    0    0    -1  
$EndComp
$Comp
L 74xx:74LS04 U3
U 6 1 5B3E44B3
P 2250 5850
F 0 "U3" H 2250 6167 50  0000 C CNN
F 1 "74LS04" H 2250 6076 50  0000 C CNN
F 2 "Package_DIP:DIP-14_W7.62mm" H 2250 5850 50  0001 C CNN
F 3 "http://www.ti.com/lit/gpn/sn74LS04" H 2250 5850 50  0001 C CNN
	6    2250 5850
	1    0    0    -1  
$EndComp
$Comp
L 74xx:74LS04 U3
U 7 1 5B3E4543
P 3250 5300
F 0 "U3" H 3480 5346 50  0000 L CNN
F 1 "74LS04" H 3480 5255 50  0000 L CNN
F 2 "Package_DIP:DIP-14_W7.62mm" H 3250 5300 50  0001 C CNN
F 3 "http://www.ti.com/lit/gpn/sn74LS04" H 3250 5300 50  0001 C CNN
	7    3250 5300
	1    0    0    -1  
$EndComp
$Comp
L power:VCC #PWR0101
U 1 1 5B3E45ED
P 3250 4800
F 0 "#PWR0101" H 3250 4650 50  0001 C CNN
F 1 "VCC" H 3267 4973 50  0000 C CNN
F 2 "" H 3250 4800 50  0001 C CNN
F 3 "" H 3250 4800 50  0001 C CNN
	1    3250 4800
	1    0    0    -1  
$EndComp
$Comp
L power:GND #PWR0102
U 1 1 5B3E463A
P 3250 5800
F 0 "#PWR0102" H 3250 5550 50  0001 C CNN
F 1 "GND" H 3255 5627 50  0000 C CNN
F 2 "" H 3250 5800 50  0001 C CNN
F 3 "" H 3250 5800 50  0001 C CNN
	1    3250 5800
	1    0    0    -1  
$EndComp
Text Label 2550 5450 0    50   ~ 0
-IE
Text Label 2550 5850 0    50   ~ 0
-OE
Text Label 1950 5850 2    50   ~ 0
OE
Text Label 1950 5450 2    50   ~ 0
IE
NoConn ~ 1950 5650
NoConn ~ 1950 5250
NoConn ~ 1950 5050
NoConn ~ 2000 4850
NoConn ~ 2550 4850
NoConn ~ 2550 5050
NoConn ~ 2550 5250
NoConn ~ 2550 5650
$EndSCHEMATC
