EESchema Schematic File Version 4
LIBS:mopki_clock-cache
EELAYER 26 0
EELAYER END
$Descr A4 11693 8268
encoding utf-8
Sheet 1 1
Title ""
Date ""
Rev ""
Comp ""
Comment1 ""
Comment2 ""
Comment3 ""
Comment4 ""
$EndDescr
$Comp
L power:GND #PWR02
U 1 1 5B1951F8
P 11100 6300
F 0 "#PWR02" H 11100 6050 50  0001 C CNN
F 1 "GND" H 11105 6127 50  0000 C CNN
F 2 "" H 11100 6300 50  0001 C CNN
F 3 "" H 11100 6300 50  0001 C CNN
	1    11100 6300
	1    0    0    -1  
$EndComp
$Comp
L power:VCC #PWR01
U 1 1 5B1952DF
P 10750 6300
F 0 "#PWR01" H 10750 6150 50  0001 C CNN
F 1 "VCC" H 10767 6473 50  0000 C CNN
F 2 "" H 10750 6300 50  0001 C CNN
F 3 "" H 10750 6300 50  0001 C CNN
	1    10750 6300
	1    0    0    -1  
$EndComp
$Comp
L power:PWR_FLAG #FLG02
U 1 1 5B19534E
P 11100 6300
F 0 "#FLG02" H 11100 6375 50  0001 C CNN
F 1 "PWR_FLAG" H 11100 6474 50  0000 C CNN
F 2 "" H 11100 6300 50  0001 C CNN
F 3 "~" H 11100 6300 50  0001 C CNN
	1    11100 6300
	1    0    0    -1  
$EndComp
$Comp
L power:PWR_FLAG #FLG01
U 1 1 5B195370
P 10750 6300
F 0 "#FLG01" H 10750 6375 50  0001 C CNN
F 1 "PWR_FLAG" H 10750 6473 50  0000 C CNN
F 2 "" H 10750 6300 50  0001 C CNN
F 3 "~" H 10750 6300 50  0001 C CNN
	1    10750 6300
	-1   0    0    1   
$EndComp
Text GLabel 1250 2750 2    50   Input ~ 0
GND
Text GLabel 1250 2650 2    50   Input ~ 0
VCC
Text Label 9150 3700 1    50   ~ 0
Clock
Text GLabel 10750 6300 0    50   Input ~ 0
VCC
Text GLabel 11100 6300 0    50   Input ~ 0
GND
$Comp
L Switch:SW_DIP_x01 SW1
U 1 1 5B1E90D9
P 6950 5400
F 0 "SW1" V 6904 5530 50  0000 L CNN
F 1 "SW_DIP_x01" V 6995 5530 50  0000 L CNN
F 2 "Button_Switch_THT:SW_DIP_SPSTx01_Slide_9.78x4.72mm_W7.62mm_P2.54mm" H 6950 5400 50  0001 C CNN
F 3 "" H 6950 5400 50  0001 C CNN
	1    6950 5400
	0    1    1    0   
$EndComp
$Comp
L power:VCC #PWR0101
U 1 1 5B1E91A3
P 6950 4800
F 0 "#PWR0101" H 6950 4650 50  0001 C CNN
F 1 "VCC" H 6967 4973 50  0000 C CNN
F 2 "" H 6950 4800 50  0001 C CNN
F 3 "" H 6950 4800 50  0001 C CNN
	1    6950 4800
	1    0    0    -1  
$EndComp
$Comp
L Device:R R3
U 1 1 5B1E91F8
P 6950 4950
F 0 "R3" H 7020 4996 50  0000 L CNN
F 1 "10K" H 7020 4905 50  0000 L CNN
F 2 "Resistor_THT:R_Axial_DIN0207_L6.3mm_D2.5mm_P10.16mm_Horizontal" V 6880 4950 50  0001 C CNN
F 3 "~" H 6950 4950 50  0001 C CNN
	1    6950 4950
	1    0    0    -1  
$EndComp
$Comp
L power:GND #PWR0102
U 1 1 5B1E92B7
P 6950 5700
F 0 "#PWR0102" H 6950 5450 50  0001 C CNN
F 1 "GND" H 6955 5527 50  0000 C CNN
F 2 "" H 6950 5700 50  0001 C CNN
F 3 "" H 6950 5700 50  0001 C CNN
	1    6950 5700
	1    0    0    -1  
$EndComp
Connection ~ 6950 5100
Text Label 7050 5100 0    50   ~ 0
Mode_Select
$Comp
L Timer:LM556 U1
U 1 1 5B1E9C9C
P 3450 1650
F 0 "U1" H 3200 2000 50  0000 C CNN
F 1 "LM556" H 3650 2000 50  0000 C CNN
F 2 "Package_DIP:DIP-14_W7.62mm" H 3450 1650 50  0001 C CNN
F 3 "http://www.ti.com/lit/ds/symlink/lm556.pdf" H 3450 1650 50  0001 C CNN
	1    3450 1650
	1    0    0    -1  
$EndComp
$Comp
L Timer:LM556 U1
U 2 1 5B1E9D45
P 4000 3550
F 0 "U1" H 3750 3900 50  0000 C CNN
F 1 "LM556" H 4200 3900 50  0000 C CNN
F 2 "Package_DIP:DIP-14_W7.62mm" H 4000 3550 50  0001 C CNN
F 3 "http://www.ti.com/lit/ds/symlink/lm556.pdf" H 4000 3550 50  0001 C CNN
	2    4000 3550
	1    0    0    -1  
$EndComp
$Comp
L power:VCC #PWR0103
U 1 1 5B1E9F0D
P 3450 1250
F 0 "#PWR0103" H 3450 1100 50  0001 C CNN
F 1 "VCC" H 3467 1423 50  0000 C CNN
F 2 "" H 3450 1250 50  0001 C CNN
F 3 "" H 3450 1250 50  0001 C CNN
	1    3450 1250
	1    0    0    -1  
$EndComp
Text Label 3950 1450 0    50   ~ 0
clk_auto
Wire Wire Line
	4300 1000 2950 1000
Wire Wire Line
	2950 1000 2950 1450
$Comp
L Device:R R2
U 1 1 5B1E9F72
P 4450 1850
F 0 "R2" V 4657 1850 50  0000 C CNN
F 1 "1K" V 4566 1850 50  0000 C CNN
F 2 "Resistor_THT:R_Axial_DIN0207_L6.3mm_D2.5mm_P10.16mm_Horizontal" V 4380 1850 50  0001 C CNN
F 3 "~" H 4450 1850 50  0001 C CNN
	1    4450 1850
	0    -1   -1   0   
$EndComp
$Comp
L Device:R_POT RV1
U 1 1 5B1EA1F4
P 4850 1850
F 0 "RV1" H 4781 1804 50  0000 R CNN
F 1 "1M" H 4781 1895 50  0000 R CNN
F 2 "Potentiometer_THT:Potentiometer_Piher_PT-6-V_Vertical" H 4850 1850 50  0001 C CNN
F 3 "~" H 4850 1850 50  0001 C CNN
	1    4850 1850
	-1   0    0    1   
$EndComp
$Comp
L power:GND #PWR0104
U 1 1 5B1EA3A4
P 4300 2150
F 0 "#PWR0104" H 4300 1900 50  0001 C CNN
F 1 "GND" H 4305 1977 50  0000 C CNN
F 2 "" H 4300 2150 50  0001 C CNN
F 3 "" H 4300 2150 50  0001 C CNN
	1    4300 2150
	1    0    0    -1  
$EndComp
$Comp
L power:VCC #PWR0105
U 1 1 5B1EA3E2
P 4850 1300
F 0 "#PWR0105" H 4850 1150 50  0001 C CNN
F 1 "VCC" H 4867 1473 50  0000 C CNN
F 2 "" H 4850 1300 50  0001 C CNN
F 3 "" H 4850 1300 50  0001 C CNN
	1    4850 1300
	1    0    0    -1  
$EndComp
Connection ~ 4300 1850
Wire Wire Line
	3950 1850 4300 1850
Wire Wire Line
	4300 2150 3450 2150
Wire Wire Line
	3450 2150 3450 2050
Connection ~ 4300 2150
Wire Wire Line
	4300 2150 4850 2150
Wire Wire Line
	4850 2150 4850 2000
$Comp
L Device:C C1
U 1 1 5B1EA6A6
P 2800 1650
F 0 "C1" V 2548 1650 50  0000 C CNN
F 1 "10n" V 2639 1650 50  0000 C CNN
F 2 "Capacitor_THT:C_Disc_D10.0mm_W2.5mm_P5.00mm" H 2838 1500 50  0001 C CNN
F 3 "~" H 2800 1650 50  0001 C CNN
	1    2800 1650
	0    1    1    0   
$EndComp
$Comp
L power:GND #PWR0106
U 1 1 5B1EA7BE
P 2650 1650
F 0 "#PWR0106" H 2650 1400 50  0001 C CNN
F 1 "GND" H 2655 1477 50  0000 C CNN
F 2 "" H 2650 1650 50  0001 C CNN
F 3 "" H 2650 1650 50  0001 C CNN
	1    2650 1650
	1    0    0    -1  
$EndComp
Wire Wire Line
	4600 1850 4700 1850
$Comp
L Device:R R1
U 1 1 5B1EABAD
P 4850 1450
F 0 "R1" H 4920 1496 50  0000 L CNN
F 1 "1K" H 4920 1405 50  0000 L CNN
F 2 "Resistor_THT:R_Axial_DIN0207_L6.3mm_D2.5mm_P10.16mm_Horizontal" V 4780 1450 50  0001 C CNN
F 3 "~" H 4850 1450 50  0001 C CNN
	1    4850 1450
	1    0    0    -1  
$EndComp
Wire Wire Line
	3950 1650 4850 1650
Wire Wire Line
	4850 1650 4850 1600
Wire Wire Line
	4850 1650 4850 1700
Connection ~ 4850 1650
Wire Wire Line
	4300 1850 4300 1000
$Comp
L Device:CP C2
U 1 1 5B1EAFC0
P 4300 2000
F 0 "C2" H 4418 2046 50  0000 L CNN
F 1 "1u" H 4418 1955 50  0000 L CNN
F 2 "Capacitor_THT:CP_Radial_D5.0mm_P2.50mm" H 4338 1850 50  0001 C CNN
F 3 "~" H 4300 2000 50  0001 C CNN
	1    4300 2000
	1    0    0    -1  
$EndComp
$Comp
L power:VCC #PWR0107
U 1 1 5B1EB1E2
P 4000 2600
F 0 "#PWR0107" H 4000 2450 50  0001 C CNN
F 1 "VCC" H 4017 2773 50  0000 C CNN
F 2 "" H 4000 2600 50  0001 C CNN
F 3 "" H 4000 2600 50  0001 C CNN
	1    4000 2600
	1    0    0    -1  
$EndComp
$Comp
L power:GND #PWR0108
U 1 1 5B1EB229
P 4500 4050
F 0 "#PWR0108" H 4500 3800 50  0001 C CNN
F 1 "GND" H 4505 3877 50  0000 C CNN
F 2 "" H 4500 4050 50  0001 C CNN
F 3 "" H 4500 4050 50  0001 C CNN
	1    4500 4050
	1    0    0    -1  
$EndComp
Wire Wire Line
	4500 3550 4500 3750
$Comp
L Device:CP C4
U 1 1 5B1EB33B
P 4500 3900
F 0 "C4" H 4618 3946 50  0000 L CNN
F 1 "1u" H 4618 3855 50  0000 L CNN
F 2 "Capacitor_THT:CP_Radial_D5.0mm_P2.50mm" H 4538 3750 50  0001 C CNN
F 3 "~" H 4500 3900 50  0001 C CNN
	1    4500 3900
	1    0    0    -1  
$EndComp
Connection ~ 4500 3750
Wire Wire Line
	4500 4050 4000 4050
Wire Wire Line
	4000 4050 4000 3950
Connection ~ 4500 4050
$Comp
L Device:C C3
U 1 1 5B1EB53D
P 3350 3550
F 0 "C3" V 3098 3550 50  0000 C CNN
F 1 "10n" V 3189 3550 50  0000 C CNN
F 2 "Capacitor_THT:C_Disc_D10.0mm_W2.5mm_P5.00mm" H 3388 3400 50  0001 C CNN
F 3 "~" H 3350 3550 50  0001 C CNN
	1    3350 3550
	0    1    1    0   
$EndComp
$Comp
L power:GND #PWR0109
U 1 1 5B1EB61C
P 3200 3550
F 0 "#PWR0109" H 3200 3300 50  0001 C CNN
F 1 "GND" H 3205 3377 50  0000 C CNN
F 2 "" H 3200 3550 50  0001 C CNN
F 3 "" H 3200 3550 50  0001 C CNN
	1    3200 3550
	1    0    0    -1  
$EndComp
Text Label 4500 3350 0    50   ~ 0
clk_manual
$Comp
L Device:R R5
U 1 1 5B1EB6A6
P 4650 3550
F 0 "R5" V 4443 3550 50  0000 C CNN
F 1 "100K" V 4534 3550 50  0000 C CNN
F 2 "Resistor_THT:R_Axial_DIN0207_L6.3mm_D2.5mm_P10.16mm_Horizontal" V 4580 3550 50  0001 C CNN
F 3 "~" H 4650 3550 50  0001 C CNN
	1    4650 3550
	0    1    1    0   
$EndComp
Connection ~ 4500 3550
$Comp
L power:VCC #PWR0110
U 1 1 5B1EB752
P 4800 3550
F 0 "#PWR0110" H 4800 3400 50  0001 C CNN
F 1 "VCC" V 4817 3678 50  0000 L CNN
F 2 "" H 4800 3550 50  0001 C CNN
F 3 "" H 4800 3550 50  0001 C CNN
	1    4800 3550
	0    1    1    0   
$EndComp
Wire Wire Line
	3500 3350 3500 3000
$Comp
L Device:R R4
U 1 1 5B1EB93C
P 3500 2750
F 0 "R4" H 3570 2796 50  0000 L CNN
F 1 "10K" H 3570 2705 50  0000 L CNN
F 2 "Resistor_THT:R_Axial_DIN0207_L6.3mm_D2.5mm_P10.16mm_Horizontal" V 3430 2750 50  0001 C CNN
F 3 "~" H 3500 2750 50  0001 C CNN
	1    3500 2750
	1    0    0    -1  
$EndComp
Wire Wire Line
	3500 2600 4000 2600
Wire Wire Line
	4000 2600 4000 3150
Connection ~ 4000 2600
$Comp
L Switch:SW_Push SW2
U 1 1 5B1EBD84
P 3300 3000
F 0 "SW2" H 3300 3285 50  0000 C CNN
F 1 "SW_Push" H 3300 3194 50  0000 C CNN
F 2 "Button_Switch_THT:SW_PUSH_6mm" H 3300 3200 50  0001 C CNN
F 3 "" H 3300 3200 50  0001 C CNN
	1    3300 3000
	1    0    0    -1  
$EndComp
Connection ~ 3500 3000
Wire Wire Line
	3500 3000 3500 2900
Wire Wire Line
	3200 3550 3100 3550
Wire Wire Line
	3100 3550 3100 3000
Connection ~ 3200 3550
$Comp
L power:GND #PWR0111
U 1 1 5B1EC4D5
P 8550 5500
F 0 "#PWR0111" H 8550 5250 50  0001 C CNN
F 1 "GND" H 8555 5327 50  0000 C CNN
F 2 "" H 8550 5500 50  0001 C CNN
F 3 "" H 8550 5500 50  0001 C CNN
	1    8550 5500
	1    0    0    -1  
$EndComp
$Comp
L power:VCC #PWR0112
U 1 1 5B1EC53A
P 8550 3400
F 0 "#PWR0112" H 8550 3250 50  0001 C CNN
F 1 "VCC" H 8567 3573 50  0000 C CNN
F 2 "" H 8550 3400 50  0001 C CNN
F 3 "" H 8550 3400 50  0001 C CNN
	1    8550 3400
	1    0    0    -1  
$EndComp
Text Label 8050 5200 2    50   ~ 0
Reset
Text Notes 4150 3050 0    50   ~ 0
Manual trigger gives 0.10 ... 0.15s HIGH pulse.
$Comp
L Device:R R6
U 1 1 5B1EF5A2
P 1300 3800
F 0 "R6" V 1400 3800 50  0000 C CNN
F 1 "10K" V 1300 3800 50  0000 C CNN
F 2 "Resistor_THT:R_Axial_DIN0207_L6.3mm_D2.5mm_P10.16mm_Horizontal" V 1230 3800 50  0001 C CNN
F 3 "~" H 1300 3800 50  0001 C CNN
	1    1300 3800
	-1   0    0    1   
$EndComp
$Comp
L power:GND #PWR0113
U 1 1 5B1F09B9
P 1300 3950
F 0 "#PWR0113" H 1300 3700 50  0001 C CNN
F 1 "GND" V 1305 3822 50  0000 R CNN
F 2 "" H 1300 3950 50  0001 C CNN
F 3 "" H 1300 3950 50  0001 C CNN
	1    1300 3950
	1    0    0    -1  
$EndComp
$Comp
L Connector:Conn_01x02_Male J1
U 1 1 5B350C16
P 1050 2650
F 0 "J1" H 1156 2828 50  0000 C CNN
F 1 "Conn_01x02_Male" H 1156 2737 50  0000 C CNN
F 2 "Connector_PinHeader_2.54mm:PinHeader_1x02_P2.54mm_Vertical" H 1050 2650 50  0001 C CNN
F 3 "~" H 1050 2650 50  0001 C CNN
	1    1050 2650
	1    0    0    -1  
$EndComp
$Comp
L Connector:Conn_01x01_Male J2
U 1 1 5B350D7B
P 9400 3700
F 0 "J2" H 9506 3878 50  0000 C CNN
F 1 "Conn_01x01_Male" H 9400 3800 50  0000 C CNN
F 2 "Connector_PinHeader_2.54mm:PinHeader_1x01_P2.54mm_Vertical" H 9400 3700 50  0001 C CNN
F 3 "~" H 9400 3700 50  0001 C CNN
	1    9400 3700
	-1   0    0    1   
$EndComp
$Comp
L Connector:Conn_01x01_Male J3
U 1 1 5B35277C
P 1100 3650
F 0 "J3" H 1206 3828 50  0000 C CNN
F 1 "Conn_01x01_Male" H 1206 3737 50  0000 C CNN
F 2 "Connector_PinHeader_2.54mm:PinHeader_1x01_P2.54mm_Vertical" H 1100 3650 50  0001 C CNN
F 3 "~" H 1100 3650 50  0001 C CNN
	1    1100 3650
	1    0    0    -1  
$EndComp
Text Label 1300 3650 0    50   ~ 0
Reset
$Comp
L 74xx:74LS153 U2
U 1 1 5B352D7C
P 8550 4400
F 0 "U2" H 8750 5250 50  0000 C CNN
F 1 "74LS153" H 8350 5250 50  0000 C CNN
F 2 "Package_DIP:DIP-16_W7.62mm" H 8550 4400 50  0001 C CNN
F 3 "http://www.ti.com/lit/gpn/sn74LS153" H 8550 4400 50  0001 C CNN
	1    8550 4400
	1    0    0    -1  
$EndComp
$Comp
L power:GND #PWR0114
U 1 1 5B353EB7
P 8050 4900
F 0 "#PWR0114" H 8050 4650 50  0001 C CNN
F 1 "GND" V 8055 4772 50  0000 R CNN
F 2 "" H 8050 4900 50  0001 C CNN
F 3 "" H 8050 4900 50  0001 C CNN
	1    8050 4900
	0    1    1    0   
$EndComp
Wire Wire Line
	8050 3900 8050 4000
$Comp
L power:GND #PWR0115
U 1 1 5B354340
P 8050 4000
F 0 "#PWR0115" H 8050 3750 50  0001 C CNN
F 1 "GND" V 8055 3872 50  0000 R CNN
F 2 "" H 8050 4000 50  0001 C CNN
F 3 "" H 8050 4000 50  0001 C CNN
	1    8050 4000
	0    1    1    0   
$EndComp
Connection ~ 8050 4000
Wire Wire Line
	8050 4200 8050 4000
Wire Wire Line
	6950 5100 8050 5100
Text Label 8050 3800 2    50   ~ 0
clk_manual
Text Label 8050 3700 2    50   ~ 0
clk_auto
Wire Wire Line
	9050 3700 9200 3700
NoConn ~ 8050 4700
NoConn ~ 8050 4600
NoConn ~ 8050 4500
NoConn ~ 8050 4400
NoConn ~ 9050 4400
$Comp
L power:GND #PWR0116
U 1 1 5B358088
P 2950 1850
F 0 "#PWR0116" H 2950 1600 50  0001 C CNN
F 1 "GND" H 2955 1677 50  0000 C CNN
F 2 "" H 2950 1850 50  0001 C CNN
F 3 "" H 2950 1850 50  0001 C CNN
	1    2950 1850
	1    0    0    -1  
$EndComp
$Comp
L power:GND #PWR0117
U 1 1 5B358142
P 3500 3750
F 0 "#PWR0117" H 3500 3500 50  0001 C CNN
F 1 "GND" H 3505 3577 50  0000 C CNN
F 2 "" H 3500 3750 50  0001 C CNN
F 3 "" H 3500 3750 50  0001 C CNN
	1    3500 3750
	1    0    0    -1  
$EndComp
$EndSCHEMATC
