(kicad_pcb (version 20171130) (host pcbnew 5.0.0-rc3-unknown-101b68b~65~ubuntu16.04.1)

  (general
    (thickness 1.6)
    (drawings 71)
    (tracks 119)
    (zones 0)
    (modules 8)
    (nets 27)
  )

  (page A4)
  (layers
    (0 F.Cu signal)
    (31 B.Cu signal)
    (32 B.Adhes user)
    (33 F.Adhes user)
    (34 B.Paste user)
    (35 F.Paste user)
    (36 B.SilkS user)
    (37 F.SilkS user)
    (38 B.Mask user)
    (39 F.Mask user)
    (40 Dwgs.User user)
    (41 Cmts.User user)
    (42 Eco1.User user)
    (43 Eco2.User user)
    (44 Edge.Cuts user)
    (45 Margin user)
    (46 B.CrtYd user hide)
    (47 F.CrtYd user)
    (48 B.Fab user)
    (49 F.Fab user hide)
  )

  (setup
    (last_trace_width 0.25)
    (trace_clearance 0.2)
    (zone_clearance 0.508)
    (zone_45_only yes)
    (trace_min 0.2)
    (segment_width 0.2)
    (edge_width 0.15)
    (via_size 0.8)
    (via_drill 0.4)
    (via_min_size 0.4)
    (via_min_drill 0.3)
    (uvia_size 0.3)
    (uvia_drill 0.1)
    (uvias_allowed no)
    (uvia_min_size 0.2)
    (uvia_min_drill 0.1)
    (pcb_text_width 0.127)
    (pcb_text_size 0.635 0.635)
    (mod_edge_width 0.15)
    (mod_text_size 1 1)
    (mod_text_width 0.15)
    (pad_size 1.524 1.524)
    (pad_drill 0.762)
    (pad_to_mask_clearance 0.2)
    (aux_axis_origin 0 0)
    (visible_elements FFFFFF7F)
    (pcbplotparams
      (layerselection 0x010fc_ffffffff)
      (usegerberextensions false)
      (usegerberattributes false)
      (usegerberadvancedattributes false)
      (creategerberjobfile false)
      (excludeedgelayer true)
      (linewidth 0.100000)
      (plotframeref false)
      (viasonmask false)
      (mode 1)
      (useauxorigin false)
      (hpglpennumber 1)
      (hpglpenspeed 20)
      (hpglpendiameter 15.000000)
      (psnegative false)
      (psa4output false)
      (plotreference true)
      (plotvalue true)
      (plotinvisibletext false)
      (padsonsilk false)
      (subtractmaskfromsilk false)
      (outputformat 1)
      (mirror false)
      (drillshape 0)
      (scaleselection 1)
      (outputdirectory ""))
  )

  (net 0 "")
  (net 1 VCC)
  (net 2 GND)
  (net 3 /A7)
  (net 4 /A6)
  (net 5 /A5)
  (net 6 /A4)
  (net 7 /A3)
  (net 8 /A2)
  (net 9 /A1)
  (net 10 /A0)
  (net 11 /-A0)
  (net 12 /-A1)
  (net 13 /-A2)
  (net 14 /-A3)
  (net 15 /-A4)
  (net 16 /-A5)
  (net 17 /-A6)
  (net 18 /-A7)
  (net 19 "Net-(U2-Pad6)")
  (net 20 "Net-(U2-Pad5)")
  (net 21 "Net-(U2-Pad9)")
  (net 22 "Net-(U2-Pad8)")
  (net 23 "Net-(U2-Pad4)")
  (net 24 "Net-(U2-Pad3)")
  (net 25 "Net-(U2-Pad2)")
  (net 26 "Net-(U2-Pad1)")

  (net_class Default "This is the default net class."
    (clearance 0.2)
    (trace_width 0.25)
    (via_dia 0.8)
    (via_drill 0.4)
    (uvia_dia 0.3)
    (uvia_drill 0.1)
    (add_net /-A0)
    (add_net /-A1)
    (add_net /-A2)
    (add_net /-A3)
    (add_net /-A4)
    (add_net /-A5)
    (add_net /-A6)
    (add_net /-A7)
    (add_net /A0)
    (add_net /A1)
    (add_net /A2)
    (add_net /A3)
    (add_net /A4)
    (add_net /A5)
    (add_net /A6)
    (add_net /A7)
    (add_net GND)
    (add_net "Net-(U2-Pad1)")
    (add_net "Net-(U2-Pad2)")
    (add_net "Net-(U2-Pad3)")
    (add_net "Net-(U2-Pad4)")
    (add_net "Net-(U2-Pad5)")
    (add_net "Net-(U2-Pad6)")
    (add_net "Net-(U2-Pad8)")
    (add_net "Net-(U2-Pad9)")
    (add_net VCC)
  )

  (module MountingHole:MountingHole_2.2mm_M2_DIN965 (layer F.Cu) (tedit 5B339723) (tstamp 5B339E41)
    (at 2.54 21.59)
    (descr "Mounting Hole 2.2mm, no annular, M2, DIN965")
    (tags "mounting hole 2.2mm no annular m2 din965")
    (attr virtual)
    (fp_text reference MH_E (at 0 -2.9) (layer F.SilkS) hide
      (effects (font (size 1 1) (thickness 0.15)))
    )
    (fp_text value MountingHole_2.2mm_M2_DIN965 (at 15.24 0) (layer F.Fab)
      (effects (font (size 1 1) (thickness 0.15)))
    )
    (fp_circle (center 0 0) (end 2.15 0) (layer F.CrtYd) (width 0.05))
    (fp_circle (center 0 0) (end 1.9 0) (layer Cmts.User) (width 0.15))
    (fp_text user %R (at 6.35 1.27) (layer F.Fab)
      (effects (font (size 1 1) (thickness 0.15)))
    )
    (pad 1 np_thru_hole circle (at 0 0) (size 2.2 2.2) (drill 2.2) (layers *.Cu *.Mask))
  )

  (module MountingHole:MountingHole_2.2mm_M2_DIN965 (layer F.Cu) (tedit 5B339723) (tstamp 5B339C2C)
    (at 40.64 21.59)
    (descr "Mounting Hole 2.2mm, no annular, M2, DIN965")
    (tags "mounting hole 2.2mm no annular m2 din965")
    (attr virtual)
    (fp_text reference MH_E (at 0 -2.9) (layer F.SilkS) hide
      (effects (font (size 1 1) (thickness 0.15)))
    )
    (fp_text value MountingHole_2.2mm_M2_DIN965 (at 15.24 0) (layer F.Fab)
      (effects (font (size 1 1) (thickness 0.15)))
    )
    (fp_circle (center 0 0) (end 2.15 0) (layer F.CrtYd) (width 0.05))
    (fp_circle (center 0 0) (end 1.9 0) (layer Cmts.User) (width 0.15))
    (fp_text user %R (at 6.35 1.27) (layer F.Fab)
      (effects (font (size 1 1) (thickness 0.15)))
    )
    (pad 1 np_thru_hole circle (at 0 0) (size 2.2 2.2) (drill 2.2) (layers *.Cu *.Mask))
  )

  (module Connector_PinHeader_2.54mm:PinHeader_2x05_P2.54mm_Vertical (layer F.Cu) (tedit 59FED5CC) (tstamp 5B3399D4)
    (at 3.81 5.08)
    (descr "Through hole straight pin header, 2x05, 2.54mm pitch, double rows")
    (tags "Through hole pin header THT 2x05 2.54mm double row")
    (path /5B3B8FD5)
    (fp_text reference J1 (at 2.54 -2.33) (layer F.SilkS)
      (effects (font (size 1 1) (thickness 0.15)))
    )
    (fp_text value Argument_A (at 1.27 12.49) (layer F.Fab)
      (effects (font (size 1 1) (thickness 0.15)))
    )
    (fp_text user %R (at 1.27 5.08 90) (layer F.Fab)
      (effects (font (size 1 1) (thickness 0.15)))
    )
    (fp_line (start 4.35 -1.8) (end -1.8 -1.8) (layer F.CrtYd) (width 0.05))
    (fp_line (start 4.35 11.95) (end 4.35 -1.8) (layer F.CrtYd) (width 0.05))
    (fp_line (start -1.8 11.95) (end 4.35 11.95) (layer F.CrtYd) (width 0.05))
    (fp_line (start -1.8 -1.8) (end -1.8 11.95) (layer F.CrtYd) (width 0.05))
    (fp_line (start -1.33 -1.33) (end 0 -1.33) (layer F.SilkS) (width 0.12))
    (fp_line (start -1.33 0) (end -1.33 -1.33) (layer F.SilkS) (width 0.12))
    (fp_line (start 1.27 -1.33) (end 3.87 -1.33) (layer F.SilkS) (width 0.12))
    (fp_line (start 1.27 1.27) (end 1.27 -1.33) (layer F.SilkS) (width 0.12))
    (fp_line (start -1.33 1.27) (end 1.27 1.27) (layer F.SilkS) (width 0.12))
    (fp_line (start 3.87 -1.33) (end 3.87 11.49) (layer F.SilkS) (width 0.12))
    (fp_line (start -1.33 1.27) (end -1.33 11.49) (layer F.SilkS) (width 0.12))
    (fp_line (start -1.33 11.49) (end 3.87 11.49) (layer F.SilkS) (width 0.12))
    (fp_line (start -1.27 0) (end 0 -1.27) (layer F.Fab) (width 0.1))
    (fp_line (start -1.27 11.43) (end -1.27 0) (layer F.Fab) (width 0.1))
    (fp_line (start 3.81 11.43) (end -1.27 11.43) (layer F.Fab) (width 0.1))
    (fp_line (start 3.81 -1.27) (end 3.81 11.43) (layer F.Fab) (width 0.1))
    (fp_line (start 0 -1.27) (end 3.81 -1.27) (layer F.Fab) (width 0.1))
    (pad 10 thru_hole oval (at 2.54 10.16) (size 1.7 1.7) (drill 1) (layers *.Cu *.Mask)
      (net 3 /A7))
    (pad 9 thru_hole oval (at 0 10.16) (size 1.7 1.7) (drill 1) (layers *.Cu *.Mask)
      (net 4 /A6))
    (pad 8 thru_hole oval (at 2.54 7.62) (size 1.7 1.7) (drill 1) (layers *.Cu *.Mask)
      (net 5 /A5))
    (pad 7 thru_hole oval (at 0 7.62) (size 1.7 1.7) (drill 1) (layers *.Cu *.Mask)
      (net 6 /A4))
    (pad 6 thru_hole oval (at 2.54 5.08) (size 1.7 1.7) (drill 1) (layers *.Cu *.Mask)
      (net 7 /A3))
    (pad 5 thru_hole oval (at 0 5.08) (size 1.7 1.7) (drill 1) (layers *.Cu *.Mask)
      (net 8 /A2))
    (pad 4 thru_hole oval (at 2.54 2.54) (size 1.7 1.7) (drill 1) (layers *.Cu *.Mask)
      (net 9 /A1))
    (pad 3 thru_hole oval (at 0 2.54) (size 1.7 1.7) (drill 1) (layers *.Cu *.Mask)
      (net 10 /A0))
    (pad 2 thru_hole oval (at 2.54 0) (size 1.7 1.7) (drill 1) (layers *.Cu *.Mask)
      (net 2 GND))
    (pad 1 thru_hole rect (at 0 0) (size 1.7 1.7) (drill 1) (layers *.Cu *.Mask)
      (net 1 VCC))
    (model ${KISYS3DMOD}/Connector_PinHeader_2.54mm.3dshapes/PinHeader_2x05_P2.54mm_Vertical.wrl
      (at (xyz 0 0 0))
      (scale (xyz 1 1 1))
      (rotate (xyz 0 0 0))
    )
  )

  (module MountingHole:MountingHole_2.2mm_M2_DIN965 (layer F.Cu) (tedit 5B33972D) (tstamp 5B3399CD)
    (at 21.59 2.54)
    (descr "Mounting Hole 2.2mm, no annular, M2, DIN965")
    (tags "mounting hole 2.2mm no annular m2 din965")
    (attr virtual)
    (fp_text reference MH_N (at 0 -2.9) (layer F.SilkS) hide
      (effects (font (size 1 1) (thickness 0.15)))
    )
    (fp_text value MountingHole_2.2mm_M2_DIN965 (at 0 -6.35) (layer F.Fab)
      (effects (font (size 1 1) (thickness 0.15)))
    )
    (fp_text user %R (at 0.3 -3.81) (layer F.Fab)
      (effects (font (size 1 1) (thickness 0.15)))
    )
    (fp_circle (center 0 0) (end 1.9 0) (layer Cmts.User) (width 0.15))
    (fp_circle (center 0 0) (end 2.15 0) (layer F.CrtYd) (width 0.05))
    (pad 1 np_thru_hole circle (at 0 0) (size 2.2 2.2) (drill 2.2) (layers *.Cu *.Mask))
  )

  (module MountingHole:MountingHole_2.2mm_M2_DIN965 (layer F.Cu) (tedit 5B33971B) (tstamp 5B2538D0)
    (at 21.59 40.64)
    (descr "Mounting Hole 2.2mm, no annular, M2, DIN965")
    (tags "mounting hole 2.2mm no annular m2 din965")
    (attr virtual)
    (fp_text reference MH_S (at 0 -2.9) (layer F.SilkS) hide
      (effects (font (size 1 1) (thickness 0.15)))
    )
    (fp_text value MountingHole_2.2mm_M2_DIN965 (at 0 6.35) (layer F.Fab)
      (effects (font (size 1 1) (thickness 0.15)))
    )
    (fp_circle (center 0 0) (end 2.15 0) (layer F.CrtYd) (width 0.05))
    (fp_circle (center 0 0) (end 1.9 0) (layer Cmts.User) (width 0.15))
    (fp_text user %R (at 0.3 3.81) (layer F.Fab)
      (effects (font (size 1 1) (thickness 0.15)))
    )
    (pad 1 np_thru_hole circle (at 0 0) (size 2.2 2.2) (drill 2.2) (layers *.Cu *.Mask))
  )

  (module Connector_PinHeader_2.54mm:PinHeader_2x05_P2.54mm_Vertical (layer F.Cu) (tedit 59FED5CC) (tstamp 5B46AA3A)
    (at 36.83 5.08)
    (descr "Through hole straight pin header, 2x05, 2.54mm pitch, double rows")
    (tags "Through hole pin header THT 2x05 2.54mm double row")
    (path /5B3B92A5)
    (fp_text reference J3 (at 2.54 -2.54) (layer F.SilkS)
      (effects (font (size 1 1) (thickness 0.15)))
    )
    (fp_text value Not_A (at 1.27 12.49) (layer F.Fab)
      (effects (font (size 1 1) (thickness 0.15)))
    )
    (fp_line (start 0 -1.27) (end 3.81 -1.27) (layer F.Fab) (width 0.1))
    (fp_line (start 3.81 -1.27) (end 3.81 11.43) (layer F.Fab) (width 0.1))
    (fp_line (start 3.81 11.43) (end -1.27 11.43) (layer F.Fab) (width 0.1))
    (fp_line (start -1.27 11.43) (end -1.27 0) (layer F.Fab) (width 0.1))
    (fp_line (start -1.27 0) (end 0 -1.27) (layer F.Fab) (width 0.1))
    (fp_line (start -1.33 11.49) (end 3.87 11.49) (layer F.SilkS) (width 0.12))
    (fp_line (start -1.33 1.27) (end -1.33 11.49) (layer F.SilkS) (width 0.12))
    (fp_line (start 3.87 -1.33) (end 3.87 11.49) (layer F.SilkS) (width 0.12))
    (fp_line (start -1.33 1.27) (end 1.27 1.27) (layer F.SilkS) (width 0.12))
    (fp_line (start 1.27 1.27) (end 1.27 -1.33) (layer F.SilkS) (width 0.12))
    (fp_line (start 1.27 -1.33) (end 3.87 -1.33) (layer F.SilkS) (width 0.12))
    (fp_line (start -1.33 0) (end -1.33 -1.33) (layer F.SilkS) (width 0.12))
    (fp_line (start -1.33 -1.33) (end 0 -1.33) (layer F.SilkS) (width 0.12))
    (fp_line (start -1.8 -1.8) (end -1.8 11.95) (layer F.CrtYd) (width 0.05))
    (fp_line (start -1.8 11.95) (end 4.35 11.95) (layer F.CrtYd) (width 0.05))
    (fp_line (start 4.35 11.95) (end 4.35 -1.8) (layer F.CrtYd) (width 0.05))
    (fp_line (start 4.35 -1.8) (end -1.8 -1.8) (layer F.CrtYd) (width 0.05))
    (fp_text user %R (at 1.27 5.08 90) (layer F.Fab)
      (effects (font (size 1 1) (thickness 0.15)))
    )
    (pad 1 thru_hole rect (at 0 0) (size 1.7 1.7) (drill 1) (layers *.Cu *.Mask)
      (net 1 VCC))
    (pad 2 thru_hole oval (at 2.54 0) (size 1.7 1.7) (drill 1) (layers *.Cu *.Mask)
      (net 2 GND))
    (pad 3 thru_hole oval (at 0 2.54) (size 1.7 1.7) (drill 1) (layers *.Cu *.Mask)
      (net 11 /-A0))
    (pad 4 thru_hole oval (at 2.54 2.54) (size 1.7 1.7) (drill 1) (layers *.Cu *.Mask)
      (net 12 /-A1))
    (pad 5 thru_hole oval (at 0 5.08) (size 1.7 1.7) (drill 1) (layers *.Cu *.Mask)
      (net 13 /-A2))
    (pad 6 thru_hole oval (at 2.54 5.08) (size 1.7 1.7) (drill 1) (layers *.Cu *.Mask)
      (net 14 /-A3))
    (pad 7 thru_hole oval (at 0 7.62) (size 1.7 1.7) (drill 1) (layers *.Cu *.Mask)
      (net 15 /-A4))
    (pad 8 thru_hole oval (at 2.54 7.62) (size 1.7 1.7) (drill 1) (layers *.Cu *.Mask)
      (net 16 /-A5))
    (pad 9 thru_hole oval (at 0 10.16) (size 1.7 1.7) (drill 1) (layers *.Cu *.Mask)
      (net 17 /-A6))
    (pad 10 thru_hole oval (at 2.54 10.16) (size 1.7 1.7) (drill 1) (layers *.Cu *.Mask)
      (net 18 /-A7))
    (model ${KISYS3DMOD}/Connector_PinHeader_2.54mm.3dshapes/PinHeader_2x05_P2.54mm_Vertical.wrl
      (at (xyz 0 0 0))
      (scale (xyz 1 1 1))
      (rotate (xyz 0 0 0))
    )
  )

  (module Package_DIP:DIP-14_W7.62mm (layer F.Cu) (tedit 5A02E8C5) (tstamp 5B46AA9C)
    (at 13.97 15.875 90)
    (descr "14-lead though-hole mounted DIP package, row spacing 7.62 mm (300 mils)")
    (tags "THT DIP DIL PDIP 2.54mm 7.62mm 300mil")
    (path /5B3B947C)
    (fp_text reference U1 (at 3.81 -2.33 90) (layer F.SilkS)
      (effects (font (size 1 1) (thickness 0.15)))
    )
    (fp_text value 74LS04 (at 3.81 17.57 90) (layer F.Fab)
      (effects (font (size 1 1) (thickness 0.15)))
    )
    (fp_arc (start 3.81 -1.33) (end 2.81 -1.33) (angle -180) (layer F.SilkS) (width 0.12))
    (fp_line (start 1.635 -1.27) (end 6.985 -1.27) (layer F.Fab) (width 0.1))
    (fp_line (start 6.985 -1.27) (end 6.985 16.51) (layer F.Fab) (width 0.1))
    (fp_line (start 6.985 16.51) (end 0.635 16.51) (layer F.Fab) (width 0.1))
    (fp_line (start 0.635 16.51) (end 0.635 -0.27) (layer F.Fab) (width 0.1))
    (fp_line (start 0.635 -0.27) (end 1.635 -1.27) (layer F.Fab) (width 0.1))
    (fp_line (start 2.81 -1.33) (end 1.16 -1.33) (layer F.SilkS) (width 0.12))
    (fp_line (start 1.16 -1.33) (end 1.16 16.57) (layer F.SilkS) (width 0.12))
    (fp_line (start 1.16 16.57) (end 6.46 16.57) (layer F.SilkS) (width 0.12))
    (fp_line (start 6.46 16.57) (end 6.46 -1.33) (layer F.SilkS) (width 0.12))
    (fp_line (start 6.46 -1.33) (end 4.81 -1.33) (layer F.SilkS) (width 0.12))
    (fp_line (start -1.1 -1.55) (end -1.1 16.8) (layer F.CrtYd) (width 0.05))
    (fp_line (start -1.1 16.8) (end 8.7 16.8) (layer F.CrtYd) (width 0.05))
    (fp_line (start 8.7 16.8) (end 8.7 -1.55) (layer F.CrtYd) (width 0.05))
    (fp_line (start 8.7 -1.55) (end -1.1 -1.55) (layer F.CrtYd) (width 0.05))
    (fp_text user %R (at 3.81 7.62 90) (layer F.Fab)
      (effects (font (size 1 1) (thickness 0.15)))
    )
    (pad 1 thru_hole rect (at 0 0 90) (size 1.6 1.6) (drill 0.8) (layers *.Cu *.Mask)
      (net 5 /A5))
    (pad 8 thru_hole oval (at 7.62 15.24 90) (size 1.6 1.6) (drill 0.8) (layers *.Cu *.Mask)
      (net 13 /-A2))
    (pad 2 thru_hole oval (at 0 2.54 90) (size 1.6 1.6) (drill 0.8) (layers *.Cu *.Mask)
      (net 16 /-A5))
    (pad 9 thru_hole oval (at 7.62 12.7 90) (size 1.6 1.6) (drill 0.8) (layers *.Cu *.Mask)
      (net 8 /A2))
    (pad 3 thru_hole oval (at 0 5.08 90) (size 1.6 1.6) (drill 0.8) (layers *.Cu *.Mask)
      (net 6 /A4))
    (pad 10 thru_hole oval (at 7.62 10.16 90) (size 1.6 1.6) (drill 0.8) (layers *.Cu *.Mask)
      (net 12 /-A1))
    (pad 4 thru_hole oval (at 0 7.62 90) (size 1.6 1.6) (drill 0.8) (layers *.Cu *.Mask)
      (net 15 /-A4))
    (pad 11 thru_hole oval (at 7.62 7.62 90) (size 1.6 1.6) (drill 0.8) (layers *.Cu *.Mask)
      (net 9 /A1))
    (pad 5 thru_hole oval (at 0 10.16 90) (size 1.6 1.6) (drill 0.8) (layers *.Cu *.Mask)
      (net 7 /A3))
    (pad 12 thru_hole oval (at 7.62 5.08 90) (size 1.6 1.6) (drill 0.8) (layers *.Cu *.Mask)
      (net 11 /-A0))
    (pad 6 thru_hole oval (at 0 12.7 90) (size 1.6 1.6) (drill 0.8) (layers *.Cu *.Mask)
      (net 14 /-A3))
    (pad 13 thru_hole oval (at 7.62 2.54 90) (size 1.6 1.6) (drill 0.8) (layers *.Cu *.Mask)
      (net 10 /A0))
    (pad 7 thru_hole oval (at 0 15.24 90) (size 1.6 1.6) (drill 0.8) (layers *.Cu *.Mask)
      (net 2 GND))
    (pad 14 thru_hole oval (at 7.62 0 90) (size 1.6 1.6) (drill 0.8) (layers *.Cu *.Mask)
      (net 1 VCC))
    (model ${KISYS3DMOD}/Package_DIP.3dshapes/DIP-14_W7.62mm.wrl
      (at (xyz 0 0 0))
      (scale (xyz 1 1 1))
      (rotate (xyz 0 0 0))
    )
  )

  (module Package_DIP:DIP-14_W7.62mm (layer F.Cu) (tedit 5A02E8C5) (tstamp 5B46AABE)
    (at 13.97 29.21 90)
    (descr "14-lead though-hole mounted DIP package, row spacing 7.62 mm (300 mils)")
    (tags "THT DIP DIL PDIP 2.54mm 7.62mm 300mil")
    (path /5B3B9797)
    (fp_text reference U2 (at 3.81 -2.33 90) (layer F.SilkS)
      (effects (font (size 1 1) (thickness 0.15)))
    )
    (fp_text value 74LS04 (at 3.81 17.57 90) (layer F.Fab)
      (effects (font (size 1 1) (thickness 0.15)))
    )
    (fp_text user %R (at 3.81 7.62 90) (layer F.Fab)
      (effects (font (size 1 1) (thickness 0.15)))
    )
    (fp_line (start 8.7 -1.55) (end -1.1 -1.55) (layer F.CrtYd) (width 0.05))
    (fp_line (start 8.7 16.8) (end 8.7 -1.55) (layer F.CrtYd) (width 0.05))
    (fp_line (start -1.1 16.8) (end 8.7 16.8) (layer F.CrtYd) (width 0.05))
    (fp_line (start -1.1 -1.55) (end -1.1 16.8) (layer F.CrtYd) (width 0.05))
    (fp_line (start 6.46 -1.33) (end 4.81 -1.33) (layer F.SilkS) (width 0.12))
    (fp_line (start 6.46 16.57) (end 6.46 -1.33) (layer F.SilkS) (width 0.12))
    (fp_line (start 1.16 16.57) (end 6.46 16.57) (layer F.SilkS) (width 0.12))
    (fp_line (start 1.16 -1.33) (end 1.16 16.57) (layer F.SilkS) (width 0.12))
    (fp_line (start 2.81 -1.33) (end 1.16 -1.33) (layer F.SilkS) (width 0.12))
    (fp_line (start 0.635 -0.27) (end 1.635 -1.27) (layer F.Fab) (width 0.1))
    (fp_line (start 0.635 16.51) (end 0.635 -0.27) (layer F.Fab) (width 0.1))
    (fp_line (start 6.985 16.51) (end 0.635 16.51) (layer F.Fab) (width 0.1))
    (fp_line (start 6.985 -1.27) (end 6.985 16.51) (layer F.Fab) (width 0.1))
    (fp_line (start 1.635 -1.27) (end 6.985 -1.27) (layer F.Fab) (width 0.1))
    (fp_arc (start 3.81 -1.33) (end 2.81 -1.33) (angle -180) (layer F.SilkS) (width 0.12))
    (pad 14 thru_hole oval (at 7.62 0 90) (size 1.6 1.6) (drill 0.8) (layers *.Cu *.Mask)
      (net 1 VCC))
    (pad 7 thru_hole oval (at 0 15.24 90) (size 1.6 1.6) (drill 0.8) (layers *.Cu *.Mask)
      (net 2 GND))
    (pad 13 thru_hole oval (at 7.62 2.54 90) (size 1.6 1.6) (drill 0.8) (layers *.Cu *.Mask)
      (net 4 /A6))
    (pad 6 thru_hole oval (at 0 12.7 90) (size 1.6 1.6) (drill 0.8) (layers *.Cu *.Mask)
      (net 19 "Net-(U2-Pad6)"))
    (pad 12 thru_hole oval (at 7.62 5.08 90) (size 1.6 1.6) (drill 0.8) (layers *.Cu *.Mask)
      (net 17 /-A6))
    (pad 5 thru_hole oval (at 0 10.16 90) (size 1.6 1.6) (drill 0.8) (layers *.Cu *.Mask)
      (net 20 "Net-(U2-Pad5)"))
    (pad 11 thru_hole oval (at 7.62 7.62 90) (size 1.6 1.6) (drill 0.8) (layers *.Cu *.Mask)
      (net 3 /A7))
    (pad 4 thru_hole oval (at 0 7.62 90) (size 1.6 1.6) (drill 0.8) (layers *.Cu *.Mask)
      (net 23 "Net-(U2-Pad4)"))
    (pad 10 thru_hole oval (at 7.62 10.16 90) (size 1.6 1.6) (drill 0.8) (layers *.Cu *.Mask)
      (net 18 /-A7))
    (pad 3 thru_hole oval (at 0 5.08 90) (size 1.6 1.6) (drill 0.8) (layers *.Cu *.Mask)
      (net 24 "Net-(U2-Pad3)"))
    (pad 9 thru_hole oval (at 7.62 12.7 90) (size 1.6 1.6) (drill 0.8) (layers *.Cu *.Mask)
      (net 21 "Net-(U2-Pad9)"))
    (pad 2 thru_hole oval (at 0 2.54 90) (size 1.6 1.6) (drill 0.8) (layers *.Cu *.Mask)
      (net 25 "Net-(U2-Pad2)"))
    (pad 8 thru_hole oval (at 7.62 15.24 90) (size 1.6 1.6) (drill 0.8) (layers *.Cu *.Mask)
      (net 22 "Net-(U2-Pad8)"))
    (pad 1 thru_hole rect (at 0 0 90) (size 1.6 1.6) (drill 0.8) (layers *.Cu *.Mask)
      (net 26 "Net-(U2-Pad1)"))
    (model ${KISYS3DMOD}/Package_DIP.3dshapes/DIP-14_W7.62mm.wrl
      (at (xyz 0 0 0))
      (scale (xyz 1 1 1))
      (rotate (xyz 0 0 0))
    )
  )

  (gr_text "+5V\nVCC" (at 3.81 2.54) (layer F.SilkS) (tstamp 5B46C113)
    (effects (font (size 0.635 0.635) (thickness 0.127)))
  )
  (gr_text "+5V\nVCC" (at 36.83 2.54) (layer F.SilkS)
    (effects (font (size 0.635 0.635) (thickness 0.127)))
  )
  (gr_text "not A" (at 34.29 6.35) (layer F.SilkS)
    (effects (font (size 0.635 0.635) (thickness 0.127)) (justify right))
  )
  (gr_text 3 (at 8.89 10.16) (layer F.SilkS) (tstamp 5B46BF08)
    (effects (font (size 0.635 0.635) (thickness 0.127)))
  )
  (gr_text 4 (at 8.89 11.43) (layer F.SilkS) (tstamp 5B46BF07)
    (effects (font (size 0.635 0.635) (thickness 0.127)))
  )
  (gr_text 0 (at 8.89 6.35) (layer F.SilkS) (tstamp 5B46BF06)
    (effects (font (size 0.635 0.635) (thickness 0.127)))
  )
  (gr_text 7 (at 8.89 15.24) (layer F.SilkS) (tstamp 5B46BF05)
    (effects (font (size 0.635 0.635) (thickness 0.127)))
  )
  (gr_text 1 (at 8.89 7.62) (layer F.SilkS) (tstamp 5B46BF04)
    (effects (font (size 0.635 0.635) (thickness 0.127)))
  )
  (gr_text 6 (at 8.89 13.97) (layer F.SilkS) (tstamp 5B46BF03)
    (effects (font (size 0.635 0.635) (thickness 0.127)))
  )
  (gr_text 2 (at 8.89 8.89) (layer F.SilkS) (tstamp 5B46BF02)
    (effects (font (size 0.635 0.635) (thickness 0.127)))
  )
  (gr_text 5 (at 8.89 12.7) (layer F.SilkS) (tstamp 5B46BF01)
    (effects (font (size 0.635 0.635) (thickness 0.127)))
  )
  (gr_text 6 (at 34.29 15.24) (layer F.SilkS) (tstamp 5B46BEF8)
    (effects (font (size 0.635 0.635) (thickness 0.127)))
  )
  (gr_text 0 (at 34.29 7.62) (layer F.SilkS) (tstamp 5B46BEF7)
    (effects (font (size 0.635 0.635) (thickness 0.127)))
  )
  (gr_text 2 (at 34.29 10.16) (layer F.SilkS) (tstamp 5B46BEF6)
    (effects (font (size 0.635 0.635) (thickness 0.127)))
  )
  (gr_text 7 (at 34.29 16.51) (layer F.SilkS) (tstamp 5B46BEF5)
    (effects (font (size 0.635 0.635) (thickness 0.127)))
  )
  (gr_text 4 (at 34.29 12.7) (layer F.SilkS) (tstamp 5B46BEF4)
    (effects (font (size 0.635 0.635) (thickness 0.127)))
  )
  (gr_text 3 (at 34.29 11.43) (layer F.SilkS) (tstamp 5B46BEF3)
    (effects (font (size 0.635 0.635) (thickness 0.127)))
  )
  (gr_text 1 (at 34.29 8.89) (layer F.SilkS) (tstamp 5B46BEF2)
    (effects (font (size 0.635 0.635) (thickness 0.127)))
  )
  (gr_text 5 (at 34.29 13.97) (layer F.SilkS) (tstamp 5B46BEF1)
    (effects (font (size 0.635 0.635) (thickness 0.127)))
  )
  (gr_text "Argument A" (at 8.89 5.08) (layer F.SilkS)
    (effects (font (size 0.635 0.635) (thickness 0.127)) (justify left))
  )
  (gr_line (start 33.655 6.985) (end 34.29 6.985) (layer F.SilkS) (width 0.2))
  (gr_line (start 33.655 17.145) (end 33.655 6.985) (layer F.SilkS) (width 0.2))
  (gr_line (start 34.29 17.145) (end 33.655 17.145) (layer F.SilkS) (width 0.2))
  (gr_line (start 9.525 5.715) (end 8.89 5.715) (layer F.SilkS) (width 0.2))
  (gr_line (start 9.525 15.875) (end 9.525 5.715) (layer F.SilkS) (width 0.2))
  (gr_line (start 8.89 15.875) (end 9.525 15.875) (layer F.SilkS) (width 0.2))
  (gr_line (start 43.18 5.08) (end 44.45 5.08) (layer Dwgs.User) (width 0.2))
  (gr_line (start 0 27.94) (end -1.27 27.94) (layer Dwgs.User) (width 0.2))
  (gr_line (start 0 5.08) (end -1.27 5.08) (layer Dwgs.User) (width 0.2))
  (gr_line (start 41.91 26.67) (end 41.91 39.37) (layer Edge.Cuts) (width 0.15) (tstamp 5B339C38))
  (gr_line (start 43.18 25.4) (end 41.91 26.67) (layer Edge.Cuts) (width 0.15) (tstamp 5B339BF1))
  (gr_line (start 43.18 17.78) (end 43.18 25.4) (layer Edge.Cuts) (width 0.15) (tstamp 5B339BF0))
  (gr_line (start 41.91 16.51) (end 43.18 17.78) (layer Edge.Cuts) (width 0.15) (tstamp 5B339BEF))
  (gr_line (start 41.91 3.81) (end 41.91 16.51) (layer Edge.Cuts) (width 0.15) (tstamp 5B339BEE))
  (gr_line (start 43.18 2.54) (end 41.91 3.81) (layer Edge.Cuts) (width 0.15) (tstamp 5B339BE7))
  (gr_line (start 43.18 0) (end 43.18 2.54) (layer Edge.Cuts) (width 0.15) (tstamp 5B339BE6))
  (gr_line (start 43.18 24.13) (end 34.29 24.13) (layer Dwgs.User) (width 0.2) (tstamp 5B339BD6))
  (gr_line (start 34.29 19.05) (end 43.18 19.05) (layer Dwgs.User) (width 0.2) (tstamp 5B339BD5))
  (gr_line (start 34.29 1.27) (end 34.29 19.05) (layer Dwgs.User) (width 0.2) (tstamp 5B339BD4))
  (gr_line (start 43.18 1.27) (end 34.29 1.27) (layer Dwgs.User) (width 0.2) (tstamp 5B339BD3))
  (gr_line (start 43.18 40.64) (end 43.18 43.18) (layer Edge.Cuts) (width 0.15) (tstamp 5B339BD1))
  (gr_line (start 41.91 39.37) (end 43.18 40.64) (layer Edge.Cuts) (width 0.15) (tstamp 5B339BD0))
  (gr_line (start 0 17.78) (end 1.27 16.51) (layer Edge.Cuts) (width 0.15) (tstamp 5B339A28))
  (gr_line (start 1.27 16.51) (end 1.27 3.81) (layer Edge.Cuts) (width 0.15) (tstamp 5B339A27))
  (gr_line (start 1.27 3.81) (end 0 2.54) (layer Edge.Cuts) (width 0.15) (tstamp 5B339A26))
  (gr_line (start 0 2.54) (end 0 0) (layer Edge.Cuts) (width 0.15) (tstamp 5B339A25))
  (gr_line (start 0 0) (end 1.27 0) (layer Edge.Cuts) (width 0.15) (tstamp 5B339A24))
  (dimension 21.59 (width 0.3) (layer Dwgs.User) (tstamp 5B339A22)
    (gr_text "0,8500 in" (at 32.385 -5.909999) (layer Dwgs.User) (tstamp 5B339A22)
      (effects (font (size 1.5 1.5) (thickness 0.3)))
    )
    (feature1 (pts (xy 21.59 0) (xy 21.59 -4.39642)))
    (feature2 (pts (xy 43.18 0) (xy 43.18 -4.39642)))
    (crossbar (pts (xy 43.18 -3.809999) (xy 21.59 -3.809999)))
    (arrow1a (pts (xy 21.59 -3.809999) (xy 22.716504 -4.39642)))
    (arrow1b (pts (xy 21.59 -3.809999) (xy 22.716504 -3.223578)))
    (arrow2a (pts (xy 43.18 -3.809999) (xy 42.053496 -4.39642)))
    (arrow2b (pts (xy 43.18 -3.809999) (xy 42.053496 -3.223578)))
  )
  (gr_line (start 21.59 0) (end 21.59 43.18) (layer Dwgs.User) (width 0.2) (tstamp 5B339A21))
  (dimension 17.78 (width 0.3) (layer Dwgs.User) (tstamp 5B339A1F)
    (gr_text "17,780 mm" (at -12.501185 10.301198 270) (layer Dwgs.User) (tstamp 5B339A1F)
      (effects (font (size 1.5 1.5) (thickness 0.3)))
    )
    (feature1 (pts (xy -0.241185 19.191198) (xy -10.987606 19.191198)))
    (feature2 (pts (xy -0.241185 1.411198) (xy -10.987606 1.411198)))
    (crossbar (pts (xy -10.401185 1.411198) (xy -10.401185 19.191198)))
    (arrow1a (pts (xy -10.401185 19.191198) (xy -10.987606 18.064694)))
    (arrow1b (pts (xy -10.401185 19.191198) (xy -9.814764 18.064694)))
    (arrow2a (pts (xy -10.401185 1.411198) (xy -10.987606 2.537702)))
    (arrow2b (pts (xy -10.401185 1.411198) (xy -9.814764 2.537702)))
  )
  (dimension 17.78 (width 0.3) (layer Dwgs.User) (tstamp 5B339A1D)
    (gr_text "17,780 mm" (at -12.061367 32.985145 90) (layer Dwgs.User) (tstamp 5B339A1D)
      (effects (font (size 1.5 1.5) (thickness 0.3)))
    )
    (feature1 (pts (xy 0.198633 24.095145) (xy -10.547788 24.095145)))
    (feature2 (pts (xy 0.198633 41.875145) (xy -10.547788 41.875145)))
    (crossbar (pts (xy -9.961367 41.875145) (xy -9.961367 24.095145)))
    (arrow1a (pts (xy -9.961367 24.095145) (xy -9.374946 25.221649)))
    (arrow1b (pts (xy -9.961367 24.095145) (xy -10.547788 25.221649)))
    (arrow2a (pts (xy -9.961367 41.875145) (xy -9.374946 40.748641)))
    (arrow2b (pts (xy -9.961367 41.875145) (xy -10.547788 40.748641)))
  )
  (gr_line (start 0 21.59) (end 0 17.78) (layer Edge.Cuts) (width 0.15) (tstamp 5B339A1C))
  (gr_line (start 43.18 43.18) (end 43.18 0) (layer Dwgs.User) (width 0.2) (tstamp 5B339A19))
  (gr_line (start 43.18 0) (end 0 0) (layer Dwgs.User) (width 0.2) (tstamp 5B339A18))
  (gr_line (start 0 0) (end 0 43.18) (layer Dwgs.User) (width 0.2) (tstamp 5B339A17))
  (gr_line (start 43.18 21.59) (end 0 21.59) (layer Dwgs.User) (width 0.2) (tstamp 5B339A14))
  (gr_line (start 0 43.18) (end 0 40.64) (layer Edge.Cuts) (width 0.15) (tstamp 5B339A0B))
  (gr_line (start 0 40.64) (end 1.27 39.37) (layer Edge.Cuts) (width 0.15) (tstamp 5B46B5AE))
  (gr_line (start 1.27 39.37) (end 1.27 26.67) (layer Edge.Cuts) (width 0.15) (tstamp 5B46B566))
  (gr_line (start 1.27 26.67) (end 0 25.4) (layer Edge.Cuts) (width 0.15) (tstamp 5B46B563))
  (gr_line (start 0 25.4) (end 0 21.59) (layer Edge.Cuts) (width 0.15) (tstamp 5B3399FB))
  (gr_line (start 0 19.05) (end 8.89 19.05) (layer Dwgs.User) (width 0.15) (tstamp 5B3399F9))
  (gr_line (start 8.89 19.05) (end 8.89 1.27) (layer Dwgs.User) (width 0.15) (tstamp 5B3399F8))
  (gr_line (start 1.27 0) (end 43.18 0) (layer Edge.Cuts) (width 0.15) (tstamp 5B3399F7))
  (gr_line (start 8.89 1.27) (end 0 1.27) (layer Dwgs.User) (width 0.15) (tstamp 5B3399CC))
  (gr_line (start 0 24.13) (end 8.89 24.13) (layer Dwgs.User) (width 0.2) (tstamp 5B3399CB))
  (gr_line (start 8.89 24.13) (end 8.89 41.91) (layer Dwgs.User) (width 0.2) (tstamp 5B3399CA))
  (gr_line (start 8.89 41.91) (end 0 41.91) (layer Dwgs.User) (width 0.2) (tstamp 5B46B58A))
  (gr_line (start 43.18 1.27) (end 34.29 1.27) (layer Dwgs.User) (width 0.2) (tstamp 5B3399C1))
  (gr_line (start 43.18 43.18) (end 0 43.18) (layer Edge.Cuts) (width 0.15))
  (gr_line (start 43.18 43.18) (end 0 43.18) (layer Dwgs.User) (width 0.2))

  (segment (start 13.335 3.175) (end 13.97 3.81) (width 0.25) (layer F.Cu) (net 1))
  (segment (start 4.445 3.175) (end 13.335 3.175) (width 0.25) (layer F.Cu) (net 1))
  (segment (start 3.81 3.81) (end 4.445 3.175) (width 0.25) (layer F.Cu) (net 1))
  (segment (start 3.81 5.08) (end 3.81 3.81) (width 0.25) (layer F.Cu) (net 1))
  (segment (start 13.97 5.715) (end 13.97 8.255) (width 0.25) (layer F.Cu) (net 1))
  (segment (start 36.83 5.08) (end 23.495 5.08) (width 0.25) (layer F.Cu) (net 1))
  (segment (start 23.495 5.08) (end 22.86 5.715) (width 0.25) (layer F.Cu) (net 1))
  (segment (start 22.86 5.715) (end 14.605 5.715) (width 0.25) (layer F.Cu) (net 1))
  (segment (start 14.605 5.715) (end 13.97 6.35) (width 0.25) (layer F.Cu) (net 1))
  (segment (start 14.605 5.715) (end 13.97 5.08) (width 0.25) (layer F.Cu) (net 1))
  (segment (start 13.97 5.08) (end 13.97 5.715) (width 0.25) (layer F.Cu) (net 1))
  (segment (start 13.97 3.81) (end 13.97 5.08) (width 0.25) (layer F.Cu) (net 1))
  (segment (start 13.97 8.255) (end 15.24 9.525) (width 0.25) (layer B.Cu) (net 1))
  (segment (start 15.24 9.525) (end 15.24 20.32) (width 0.25) (layer B.Cu) (net 1))
  (segment (start 15.24 20.32) (end 13.97 21.59) (width 0.25) (layer B.Cu) (net 1))
  (segment (start 6.35 15.24) (end 10.795 15.24) (width 0.25) (layer F.Cu) (net 3))
  (segment (start 10.795 15.24) (end 11.43 15.875) (width 0.25) (layer F.Cu) (net 3))
  (segment (start 21.59 21.59) (end 21.59 22.86) (width 0.25) (layer F.Cu) (net 3))
  (segment (start 21.59 22.86) (end 20.955 23.495) (width 0.25) (layer F.Cu) (net 3))
  (segment (start 20.955 23.495) (end 12.065 23.495) (width 0.25) (layer F.Cu) (net 3))
  (segment (start 12.065 23.495) (end 11.43 22.86) (width 0.25) (layer F.Cu) (net 3))
  (segment (start 11.43 22.86) (end 11.43 15.875) (width 0.25) (layer F.Cu) (net 3))
  (segment (start 3.81 15.24) (end 5.08 13.97) (width 0.25) (layer F.Cu) (net 4))
  (segment (start 5.08 13.97) (end 11.43 13.97) (width 0.25) (layer F.Cu) (net 4))
  (segment (start 11.43 13.97) (end 12.065 14.605) (width 0.25) (layer F.Cu) (net 4))
  (segment (start 12.065 14.605) (end 12.065 19.05) (width 0.25) (layer F.Cu) (net 4))
  (segment (start 12.065 19.05) (end 12.7 19.685) (width 0.25) (layer F.Cu) (net 4))
  (segment (start 12.7 19.685) (end 15.875 19.685) (width 0.25) (layer F.Cu) (net 4))
  (segment (start 15.875 19.685) (end 16.51 20.32) (width 0.25) (layer F.Cu) (net 4))
  (segment (start 16.51 20.32) (end 16.51 21.59) (width 0.25) (layer F.Cu) (net 4))
  (segment (start 13.97 13.335) (end 13.97 15.875) (width 0.25) (layer F.Cu) (net 5))
  (segment (start 13.335 12.7) (end 13.97 13.335) (width 0.25) (layer F.Cu) (net 5))
  (segment (start 6.35 12.7) (end 13.335 12.7) (width 0.25) (layer F.Cu) (net 5))
  (segment (start 5.08 11.43) (end 10.16 11.43) (width 0.25) (layer F.Cu) (net 6))
  (segment (start 3.81 12.7) (end 5.08 11.43) (width 0.25) (layer F.Cu) (net 6))
  (segment (start 10.16 11.43) (end 10.795 12.065) (width 0.25) (layer F.Cu) (net 6))
  (segment (start 10.795 12.065) (end 18.415 12.065) (width 0.25) (layer F.Cu) (net 6))
  (segment (start 18.415 12.065) (end 19.05 12.7) (width 0.25) (layer F.Cu) (net 6))
  (segment (start 19.05 12.7) (end 19.05 15.875) (width 0.25) (layer F.Cu) (net 6))
  (segment (start 6.35 10.16) (end 10.16 10.16) (width 0.25) (layer F.Cu) (net 7))
  (segment (start 10.16 10.16) (end 11.43 11.43) (width 0.25) (layer F.Cu) (net 7))
  (segment (start 11.43 11.43) (end 23.495 11.43) (width 0.25) (layer F.Cu) (net 7))
  (segment (start 23.495 11.43) (end 24.13 12.065) (width 0.25) (layer F.Cu) (net 7))
  (segment (start 24.13 12.065) (end 24.13 15.875) (width 0.25) (layer F.Cu) (net 7))
  (segment (start 12.065 10.795) (end 11.43 10.16) (width 0.25) (layer F.Cu) (net 8))
  (segment (start 26.67 10.16) (end 26.035 10.795) (width 0.25) (layer F.Cu) (net 8))
  (segment (start 10.795 8.89) (end 10.16 8.89) (width 0.25) (layer F.Cu) (net 8))
  (segment (start 26.035 10.795) (end 12.065 10.795) (width 0.25) (layer F.Cu) (net 8))
  (segment (start 26.67 8.255) (end 26.67 10.16) (width 0.25) (layer F.Cu) (net 8))
  (segment (start 11.43 9.525) (end 10.795 8.89) (width 0.25) (layer F.Cu) (net 8))
  (segment (start 11.43 10.16) (end 11.43 9.525) (width 0.25) (layer F.Cu) (net 8))
  (segment (start 5.08 8.89) (end 10.16 8.89) (width 0.25) (layer F.Cu) (net 8))
  (segment (start 3.81 10.16) (end 5.08 8.89) (width 0.25) (layer F.Cu) (net 8))
  (segment (start 12.065 9.525) (end 12.7 10.16) (width 0.25) (layer F.Cu) (net 9))
  (segment (start 12.065 8.255) (end 12.065 9.525) (width 0.25) (layer F.Cu) (net 9))
  (segment (start 11.43 7.62) (end 12.065 8.255) (width 0.25) (layer F.Cu) (net 9))
  (segment (start 21.59 9.525) (end 21.59 8.255) (width 0.25) (layer F.Cu) (net 9))
  (segment (start 6.35 7.62) (end 11.43 7.62) (width 0.25) (layer F.Cu) (net 9))
  (segment (start 12.7 10.16) (end 20.955 10.16) (width 0.25) (layer F.Cu) (net 9))
  (segment (start 20.955 10.16) (end 21.59 9.525) (width 0.25) (layer F.Cu) (net 9))
  (segment (start 15.875 9.525) (end 13.335 9.525) (width 0.25) (layer F.Cu) (net 10))
  (segment (start 13.335 9.525) (end 12.7 8.89) (width 0.25) (layer F.Cu) (net 10))
  (segment (start 16.51 8.89) (end 15.875 9.525) (width 0.25) (layer F.Cu) (net 10))
  (segment (start 16.51 8.255) (end 16.51 8.89) (width 0.25) (layer F.Cu) (net 10))
  (segment (start 12.7 8.89) (end 12.7 6.985) (width 0.25) (layer F.Cu) (net 10))
  (segment (start 12.7 6.985) (end 12.065 6.35) (width 0.25) (layer F.Cu) (net 10))
  (segment (start 12.065 6.35) (end 5.08 6.35) (width 0.25) (layer F.Cu) (net 10))
  (segment (start 5.08 6.35) (end 3.81 7.62) (width 0.25) (layer F.Cu) (net 10))
  (segment (start 36.83 7.62) (end 33.655 7.62) (width 0.25) (layer F.Cu) (net 11))
  (segment (start 19.05 8.255) (end 19.05 6.985) (width 0.25) (layer F.Cu) (net 11))
  (segment (start 19.05 6.985) (end 19.685 6.35) (width 0.25) (layer F.Cu) (net 11))
  (segment (start 19.685 6.35) (end 32.385 6.35) (width 0.25) (layer F.Cu) (net 11))
  (segment (start 32.385 6.35) (end 33.655 7.62) (width 0.25) (layer F.Cu) (net 11))
  (segment (start 39.37 7.62) (end 38.1 8.89) (width 0.25) (layer F.Cu) (net 12))
  (segment (start 38.1 8.89) (end 33.655 8.89) (width 0.25) (layer F.Cu) (net 12))
  (segment (start 24.13 8.255) (end 24.13 7.62) (width 0.25) (layer F.Cu) (net 12))
  (segment (start 24.13 7.62) (end 24.765 6.985) (width 0.25) (layer F.Cu) (net 12))
  (segment (start 24.765 6.985) (end 31.75 6.985) (width 0.25) (layer F.Cu) (net 12))
  (segment (start 31.75 6.985) (end 33.655 8.89) (width 0.25) (layer F.Cu) (net 12))
  (segment (start 36.83 10.16) (end 33.655 10.16) (width 0.25) (layer F.Cu) (net 13))
  (segment (start 29.21 8.255) (end 31.75 8.255) (width 0.25) (layer F.Cu) (net 13))
  (segment (start 31.75 8.255) (end 33.655 10.16) (width 0.25) (layer F.Cu) (net 13))
  (segment (start 39.37 10.16) (end 38.1 11.43) (width 0.25) (layer F.Cu) (net 14))
  (segment (start 26.67 15.875) (end 26.67 12.065) (width 0.25) (layer F.Cu) (net 14))
  (segment (start 26.67 12.065) (end 27.305 11.43) (width 0.25) (layer F.Cu) (net 14))
  (segment (start 27.305 11.43) (end 34.29 11.43) (width 0.25) (layer F.Cu) (net 14))
  (segment (start 34.29 11.43) (end 33.655 11.43) (width 0.25) (layer F.Cu) (net 14))
  (segment (start 38.1 11.43) (end 34.29 11.43) (width 0.25) (layer F.Cu) (net 14))
  (segment (start 36.83 12.7) (end 33.655 12.7) (width 0.25) (layer F.Cu) (net 15))
  (segment (start 21.59 15.875) (end 21.59 17.145) (width 0.25) (layer F.Cu) (net 15))
  (segment (start 21.59 17.145) (end 22.225 17.78) (width 0.25) (layer F.Cu) (net 15))
  (segment (start 22.225 17.78) (end 30.48 17.78) (width 0.25) (layer F.Cu) (net 15))
  (segment (start 30.48 17.78) (end 31.115 17.145) (width 0.25) (layer F.Cu) (net 15))
  (segment (start 31.115 17.145) (end 31.115 13.335) (width 0.25) (layer F.Cu) (net 15))
  (segment (start 31.115 13.335) (end 31.75 12.7) (width 0.25) (layer F.Cu) (net 15))
  (segment (start 31.75 12.7) (end 33.655 12.7) (width 0.25) (layer F.Cu) (net 15))
  (segment (start 17.145 18.415) (end 16.51 17.78) (width 0.25) (layer F.Cu) (net 16))
  (segment (start 31.75 17.78) (end 31.115 18.415) (width 0.25) (layer F.Cu) (net 16))
  (segment (start 39.37 12.7) (end 38.1 13.97) (width 0.25) (layer F.Cu) (net 16))
  (segment (start 31.115 18.415) (end 17.145 18.415) (width 0.25) (layer F.Cu) (net 16))
  (segment (start 38.1 13.97) (end 32.385 13.97) (width 0.25) (layer F.Cu) (net 16))
  (segment (start 16.51 17.78) (end 16.51 15.875) (width 0.25) (layer F.Cu) (net 16))
  (segment (start 32.385 13.97) (end 31.75 14.605) (width 0.25) (layer F.Cu) (net 16))
  (segment (start 31.75 14.605) (end 31.75 17.78) (width 0.25) (layer F.Cu) (net 16))
  (segment (start 31.75 19.05) (end 19.685 19.05) (width 0.25) (layer F.Cu) (net 17))
  (segment (start 36.83 15.24) (end 33.02 15.24) (width 0.25) (layer F.Cu) (net 17))
  (segment (start 32.385 15.875) (end 32.385 18.415) (width 0.25) (layer F.Cu) (net 17))
  (segment (start 33.02 15.24) (end 32.385 15.875) (width 0.25) (layer F.Cu) (net 17))
  (segment (start 19.685 19.05) (end 19.05 19.685) (width 0.25) (layer F.Cu) (net 17))
  (segment (start 32.385 18.415) (end 31.75 19.05) (width 0.25) (layer F.Cu) (net 17))
  (segment (start 19.05 19.685) (end 19.05 21.59) (width 0.25) (layer F.Cu) (net 17))
  (segment (start 33.02 19.05) (end 32.385 19.685) (width 0.25) (layer F.Cu) (net 18))
  (segment (start 32.385 19.685) (end 24.765 19.685) (width 0.25) (layer F.Cu) (net 18))
  (segment (start 38.1 16.51) (end 33.655 16.51) (width 0.25) (layer F.Cu) (net 18))
  (segment (start 24.765 19.685) (end 24.13 20.32) (width 0.25) (layer F.Cu) (net 18))
  (segment (start 33.655 16.51) (end 33.02 17.145) (width 0.25) (layer F.Cu) (net 18))
  (segment (start 39.37 15.24) (end 38.1 16.51) (width 0.25) (layer F.Cu) (net 18))
  (segment (start 33.02 17.145) (end 33.02 19.05) (width 0.25) (layer F.Cu) (net 18))
  (segment (start 24.13 21.59) (end 24.13 20.32) (width 0.25) (layer F.Cu) (net 18))

  (zone (net 0) (net_name "") (layers F&B.Cu) (tstamp 0) (hatch full 0.508)
    (connect_pads (clearance 0.508))
    (min_thickness 0.254)
    (keepout (tracks not_allowed) (vias not_allowed) (copperpour allowed))
    (fill (arc_segments 16) (thermal_gap 0.508) (thermal_bridge_width 0.508))
    (polygon
      (pts
        (xy 19.05 39.37) (xy 20.32 38.1) (xy 22.86 38.1) (xy 24.13 39.37) (xy 24.13 43.18)
        (xy 19.05 43.18)
      )
    )
  )
  (zone (net 0) (net_name "") (layers F&B.Cu) (tstamp 0) (hatch full 0.508)
    (connect_pads (clearance 0.508))
    (min_thickness 0.254)
    (keepout (tracks not_allowed) (vias not_allowed) (copperpour allowed))
    (fill (arc_segments 16) (thermal_gap 0.508) (thermal_bridge_width 0.508))
    (polygon
      (pts
        (xy 43.18 43.18) (xy 0 43.18) (xy 0 41.91) (xy 43.18 41.91)
      )
    )
  )
  (zone (net 0) (net_name "") (layers F&B.Cu) (tstamp 5B339A0F) (hatch full 0.508)
    (connect_pads (clearance 0.508))
    (min_thickness 0.254)
    (keepout (tracks not_allowed) (vias not_allowed) (copperpour allowed))
    (fill (arc_segments 16) (thermal_gap 0.508) (thermal_bridge_width 0.508))
    (polygon
      (pts
        (xy 24.13 3.81) (xy 22.86 5.08) (xy 20.32 5.08) (xy 19.05 3.81) (xy 19.05 0)
        (xy 24.13 0)
      )
    )
  )
  (zone (net 0) (net_name "") (layers F&B.Cu) (tstamp 5B339A10) (hatch full 0.508)
    (connect_pads (clearance 0.508))
    (min_thickness 0.254)
    (keepout (tracks not_allowed) (vias not_allowed) (copperpour allowed))
    (fill (arc_segments 16) (thermal_gap 0.508) (thermal_bridge_width 0.508))
    (polygon
      (pts
        (xy 3.81 19.05) (xy 5.08 20.32) (xy 5.08 22.86) (xy 3.81 24.13) (xy 0 24.13)
        (xy 0 19.05)
      )
    )
  )
  (zone (net 0) (net_name "") (layers F&B.Cu) (tstamp 5B339A1A) (hatch full 0.508)
    (connect_pads (clearance 0.508))
    (min_thickness 0.254)
    (keepout (tracks not_allowed) (vias not_allowed) (copperpour allowed))
    (fill (arc_segments 16) (thermal_gap 0.508) (thermal_bridge_width 0.508))
    (polygon
      (pts
        (xy 0 1.27) (xy 43.18 1.27) (xy 43.18 0) (xy 0 0)
      )
    )
  )
  (zone (net 0) (net_name "") (layers F&B.Cu) (tstamp 5B339BB7) (hatch full 0.508)
    (connect_pads (clearance 0.508))
    (min_thickness 0.254)
    (keepout (tracks not_allowed) (vias not_allowed) (copperpour allowed))
    (fill (arc_segments 16) (thermal_gap 0.508) (thermal_bridge_width 0.508))
    (polygon
      (pts
        (xy 39.37 24.13) (xy 38.1 22.86) (xy 38.1 20.32) (xy 39.37 19.05) (xy 43.18 19.05)
        (xy 43.18 24.13)
      )
    )
  )
  (zone (net 2) (net_name GND) (layer B.Cu) (tstamp 5B4FE864) (hatch edge 0.508)
    (connect_pads yes (clearance 0.508))
    (min_thickness 0.254)
    (fill yes (arc_segments 16) (thermal_gap 0.508) (thermal_bridge_width 0.508))
    (polygon
      (pts
        (xy 6.35 5.715) (xy 8.255 5.715) (xy 8.89 6.35) (xy 8.89 19.05) (xy 8.89 37.465)
        (xy 9.525 38.1) (xy 33.655 38.1) (xy 34.29 37.465) (xy 34.29 3.81) (xy 34.925 3.175)
        (xy 38.1 3.175) (xy 38.735 3.81) (xy 38.735 5.08) (xy 40.005 5.08) (xy 40.005 3.175)
        (xy 38.735 1.905) (xy 34.29 1.905) (xy 31.75 4.445) (xy 23.495 4.445) (xy 22.86 5.08)
        (xy 20.32 5.08) (xy 19.685 4.445) (xy 6.35 4.445)
      )
    )
    (filled_polygon
      (pts
        (xy 39.878 3.227606) (xy 39.878 4.953) (xy 38.862 4.953) (xy 38.862 3.81) (xy 38.852333 3.761399)
        (xy 38.824803 3.720197) (xy 38.189803 3.085197) (xy 38.148601 3.057667) (xy 38.1 3.048) (xy 34.925 3.048)
        (xy 34.876399 3.057667) (xy 34.835197 3.085197) (xy 34.200197 3.720197) (xy 34.172667 3.761399) (xy 34.163 3.81)
        (xy 34.163 37.412394) (xy 33.602394 37.973) (xy 9.577606 37.973) (xy 9.017 37.412394) (xy 9.017 28.41)
        (xy 12.52256 28.41) (xy 12.52256 30.01) (xy 12.571843 30.257765) (xy 12.712191 30.467809) (xy 12.922235 30.608157)
        (xy 13.17 30.65744) (xy 14.77 30.65744) (xy 15.017765 30.608157) (xy 15.227809 30.467809) (xy 15.368157 30.257765)
        (xy 15.394785 30.123894) (xy 15.475423 30.244577) (xy 15.950091 30.56174) (xy 16.368667 30.645) (xy 16.651333 30.645)
        (xy 17.069909 30.56174) (xy 17.544577 30.244577) (xy 17.78 29.892242) (xy 18.015423 30.244577) (xy 18.490091 30.56174)
        (xy 18.908667 30.645) (xy 19.191333 30.645) (xy 19.609909 30.56174) (xy 20.084577 30.244577) (xy 20.32 29.892242)
        (xy 20.555423 30.244577) (xy 21.030091 30.56174) (xy 21.448667 30.645) (xy 21.731333 30.645) (xy 22.149909 30.56174)
        (xy 22.624577 30.244577) (xy 22.86 29.892242) (xy 23.095423 30.244577) (xy 23.570091 30.56174) (xy 23.988667 30.645)
        (xy 24.271333 30.645) (xy 24.689909 30.56174) (xy 25.164577 30.244577) (xy 25.4 29.892242) (xy 25.635423 30.244577)
        (xy 26.110091 30.56174) (xy 26.528667 30.645) (xy 26.811333 30.645) (xy 27.229909 30.56174) (xy 27.704577 30.244577)
        (xy 28.02174 29.769909) (xy 28.133113 29.21) (xy 28.02174 28.650091) (xy 27.704577 28.175423) (xy 27.229909 27.85826)
        (xy 26.811333 27.775) (xy 26.528667 27.775) (xy 26.110091 27.85826) (xy 25.635423 28.175423) (xy 25.4 28.527758)
        (xy 25.164577 28.175423) (xy 24.689909 27.85826) (xy 24.271333 27.775) (xy 23.988667 27.775) (xy 23.570091 27.85826)
        (xy 23.095423 28.175423) (xy 22.86 28.527758) (xy 22.624577 28.175423) (xy 22.149909 27.85826) (xy 21.731333 27.775)
        (xy 21.448667 27.775) (xy 21.030091 27.85826) (xy 20.555423 28.175423) (xy 20.32 28.527758) (xy 20.084577 28.175423)
        (xy 19.609909 27.85826) (xy 19.191333 27.775) (xy 18.908667 27.775) (xy 18.490091 27.85826) (xy 18.015423 28.175423)
        (xy 17.78 28.527758) (xy 17.544577 28.175423) (xy 17.069909 27.85826) (xy 16.651333 27.775) (xy 16.368667 27.775)
        (xy 15.950091 27.85826) (xy 15.475423 28.175423) (xy 15.394785 28.296106) (xy 15.368157 28.162235) (xy 15.227809 27.952191)
        (xy 15.017765 27.811843) (xy 14.77 27.76256) (xy 13.17 27.76256) (xy 12.922235 27.811843) (xy 12.712191 27.952191)
        (xy 12.571843 28.162235) (xy 12.52256 28.41) (xy 9.017 28.41) (xy 9.017 8.255) (xy 12.506887 8.255)
        (xy 12.61826 8.814909) (xy 12.935423 9.289577) (xy 13.410091 9.60674) (xy 13.828667 9.69) (xy 14.111333 9.69)
        (xy 14.293886 9.653688) (xy 14.48 9.839802) (xy 14.48 14.42756) (xy 13.17 14.42756) (xy 12.922235 14.476843)
        (xy 12.712191 14.617191) (xy 12.571843 14.827235) (xy 12.52256 15.075) (xy 12.52256 16.675) (xy 12.571843 16.922765)
        (xy 12.712191 17.132809) (xy 12.922235 17.273157) (xy 13.17 17.32244) (xy 14.480001 17.32244) (xy 14.480001 20.005197)
        (xy 14.293886 20.191312) (xy 14.111333 20.155) (xy 13.828667 20.155) (xy 13.410091 20.23826) (xy 12.935423 20.555423)
        (xy 12.61826 21.030091) (xy 12.506887 21.59) (xy 12.61826 22.149909) (xy 12.935423 22.624577) (xy 13.410091 22.94174)
        (xy 13.828667 23.025) (xy 14.111333 23.025) (xy 14.529909 22.94174) (xy 15.004577 22.624577) (xy 15.24 22.272242)
        (xy 15.475423 22.624577) (xy 15.950091 22.94174) (xy 16.368667 23.025) (xy 16.651333 23.025) (xy 17.069909 22.94174)
        (xy 17.544577 22.624577) (xy 17.78 22.272242) (xy 18.015423 22.624577) (xy 18.490091 22.94174) (xy 18.908667 23.025)
        (xy 19.191333 23.025) (xy 19.609909 22.94174) (xy 20.084577 22.624577) (xy 20.32 22.272242) (xy 20.555423 22.624577)
        (xy 21.030091 22.94174) (xy 21.448667 23.025) (xy 21.731333 23.025) (xy 22.149909 22.94174) (xy 22.624577 22.624577)
        (xy 22.86 22.272242) (xy 23.095423 22.624577) (xy 23.570091 22.94174) (xy 23.988667 23.025) (xy 24.271333 23.025)
        (xy 24.689909 22.94174) (xy 25.164577 22.624577) (xy 25.4 22.272242) (xy 25.635423 22.624577) (xy 26.110091 22.94174)
        (xy 26.528667 23.025) (xy 26.811333 23.025) (xy 27.229909 22.94174) (xy 27.704577 22.624577) (xy 27.94 22.272242)
        (xy 28.175423 22.624577) (xy 28.650091 22.94174) (xy 29.068667 23.025) (xy 29.351333 23.025) (xy 29.769909 22.94174)
        (xy 30.244577 22.624577) (xy 30.56174 22.149909) (xy 30.673113 21.59) (xy 30.56174 21.030091) (xy 30.244577 20.555423)
        (xy 29.769909 20.23826) (xy 29.351333 20.155) (xy 29.068667 20.155) (xy 28.650091 20.23826) (xy 28.175423 20.555423)
        (xy 27.94 20.907758) (xy 27.704577 20.555423) (xy 27.229909 20.23826) (xy 26.811333 20.155) (xy 26.528667 20.155)
        (xy 26.110091 20.23826) (xy 25.635423 20.555423) (xy 25.4 20.907758) (xy 25.164577 20.555423) (xy 24.689909 20.23826)
        (xy 24.271333 20.155) (xy 23.988667 20.155) (xy 23.570091 20.23826) (xy 23.095423 20.555423) (xy 22.86 20.907758)
        (xy 22.624577 20.555423) (xy 22.149909 20.23826) (xy 21.731333 20.155) (xy 21.448667 20.155) (xy 21.030091 20.23826)
        (xy 20.555423 20.555423) (xy 20.32 20.907758) (xy 20.084577 20.555423) (xy 19.609909 20.23826) (xy 19.191333 20.155)
        (xy 18.908667 20.155) (xy 18.490091 20.23826) (xy 18.015423 20.555423) (xy 17.78 20.907758) (xy 17.544577 20.555423)
        (xy 17.069909 20.23826) (xy 16.651333 20.155) (xy 16.368667 20.155) (xy 16 20.228332) (xy 16 17.236668)
        (xy 16.368667 17.31) (xy 16.651333 17.31) (xy 17.069909 17.22674) (xy 17.544577 16.909577) (xy 17.78 16.557242)
        (xy 18.015423 16.909577) (xy 18.490091 17.22674) (xy 18.908667 17.31) (xy 19.191333 17.31) (xy 19.609909 17.22674)
        (xy 20.084577 16.909577) (xy 20.32 16.557242) (xy 20.555423 16.909577) (xy 21.030091 17.22674) (xy 21.448667 17.31)
        (xy 21.731333 17.31) (xy 22.149909 17.22674) (xy 22.624577 16.909577) (xy 22.86 16.557242) (xy 23.095423 16.909577)
        (xy 23.570091 17.22674) (xy 23.988667 17.31) (xy 24.271333 17.31) (xy 24.689909 17.22674) (xy 25.164577 16.909577)
        (xy 25.4 16.557242) (xy 25.635423 16.909577) (xy 26.110091 17.22674) (xy 26.528667 17.31) (xy 26.811333 17.31)
        (xy 27.229909 17.22674) (xy 27.704577 16.909577) (xy 28.02174 16.434909) (xy 28.133113 15.875) (xy 28.02174 15.315091)
        (xy 27.704577 14.840423) (xy 27.229909 14.52326) (xy 26.811333 14.44) (xy 26.528667 14.44) (xy 26.110091 14.52326)
        (xy 25.635423 14.840423) (xy 25.4 15.192758) (xy 25.164577 14.840423) (xy 24.689909 14.52326) (xy 24.271333 14.44)
        (xy 23.988667 14.44) (xy 23.570091 14.52326) (xy 23.095423 14.840423) (xy 22.86 15.192758) (xy 22.624577 14.840423)
        (xy 22.149909 14.52326) (xy 21.731333 14.44) (xy 21.448667 14.44) (xy 21.030091 14.52326) (xy 20.555423 14.840423)
        (xy 20.32 15.192758) (xy 20.084577 14.840423) (xy 19.609909 14.52326) (xy 19.191333 14.44) (xy 18.908667 14.44)
        (xy 18.490091 14.52326) (xy 18.015423 14.840423) (xy 17.78 15.192758) (xy 17.544577 14.840423) (xy 17.069909 14.52326)
        (xy 16.651333 14.44) (xy 16.368667 14.44) (xy 16 14.513332) (xy 16 9.616668) (xy 16.368667 9.69)
        (xy 16.651333 9.69) (xy 17.069909 9.60674) (xy 17.544577 9.289577) (xy 17.78 8.937242) (xy 18.015423 9.289577)
        (xy 18.490091 9.60674) (xy 18.908667 9.69) (xy 19.191333 9.69) (xy 19.609909 9.60674) (xy 20.084577 9.289577)
        (xy 20.32 8.937242) (xy 20.555423 9.289577) (xy 21.030091 9.60674) (xy 21.448667 9.69) (xy 21.731333 9.69)
        (xy 22.149909 9.60674) (xy 22.624577 9.289577) (xy 22.86 8.937242) (xy 23.095423 9.289577) (xy 23.570091 9.60674)
        (xy 23.988667 9.69) (xy 24.271333 9.69) (xy 24.689909 9.60674) (xy 25.164577 9.289577) (xy 25.4 8.937242)
        (xy 25.635423 9.289577) (xy 26.110091 9.60674) (xy 26.528667 9.69) (xy 26.811333 9.69) (xy 27.229909 9.60674)
        (xy 27.704577 9.289577) (xy 27.94 8.937242) (xy 28.175423 9.289577) (xy 28.650091 9.60674) (xy 29.068667 9.69)
        (xy 29.351333 9.69) (xy 29.769909 9.60674) (xy 30.244577 9.289577) (xy 30.56174 8.814909) (xy 30.673113 8.255)
        (xy 30.56174 7.695091) (xy 30.244577 7.220423) (xy 29.769909 6.90326) (xy 29.351333 6.82) (xy 29.068667 6.82)
        (xy 28.650091 6.90326) (xy 28.175423 7.220423) (xy 27.94 7.572758) (xy 27.704577 7.220423) (xy 27.229909 6.90326)
        (xy 26.811333 6.82) (xy 26.528667 6.82) (xy 26.110091 6.90326) (xy 25.635423 7.220423) (xy 25.4 7.572758)
        (xy 25.164577 7.220423) (xy 24.689909 6.90326) (xy 24.271333 6.82) (xy 23.988667 6.82) (xy 23.570091 6.90326)
        (xy 23.095423 7.220423) (xy 22.86 7.572758) (xy 22.624577 7.220423) (xy 22.149909 6.90326) (xy 21.731333 6.82)
        (xy 21.448667 6.82) (xy 21.030091 6.90326) (xy 20.555423 7.220423) (xy 20.32 7.572758) (xy 20.084577 7.220423)
        (xy 19.609909 6.90326) (xy 19.191333 6.82) (xy 18.908667 6.82) (xy 18.490091 6.90326) (xy 18.015423 7.220423)
        (xy 17.78 7.572758) (xy 17.544577 7.220423) (xy 17.069909 6.90326) (xy 16.651333 6.82) (xy 16.368667 6.82)
        (xy 15.950091 6.90326) (xy 15.475423 7.220423) (xy 15.24 7.572758) (xy 15.004577 7.220423) (xy 14.529909 6.90326)
        (xy 14.111333 6.82) (xy 13.828667 6.82) (xy 13.410091 6.90326) (xy 12.935423 7.220423) (xy 12.61826 7.695091)
        (xy 12.506887 8.255) (xy 9.017 8.255) (xy 9.017 6.35) (xy 9.007333 6.301399) (xy 8.979803 6.260197)
        (xy 8.344803 5.625197) (xy 8.303601 5.597667) (xy 8.255 5.588) (xy 6.477 5.588) (xy 6.477 4.572)
        (xy 19.632394 4.572) (xy 20.230197 5.169803) (xy 20.271399 5.197333) (xy 20.32 5.207) (xy 22.86 5.207)
        (xy 22.908601 5.197333) (xy 22.949803 5.169803) (xy 23.547606 4.572) (xy 31.75 4.572) (xy 31.798601 4.562333)
        (xy 31.839803 4.534803) (xy 34.342606 2.032) (xy 38.682394 2.032)
      )
    )
  )
)
