EESchema Schematic File Version 4
LIBS:mopki_logic_not-cache
EELAYER 26 0
EELAYER END
$Descr A4 11693 8268
encoding utf-8
Sheet 1 1
Title ""
Date ""
Rev ""
Comp ""
Comment1 ""
Comment2 ""
Comment3 ""
Comment4 ""
$EndDescr
$Comp
L Connector_Generic:Conn_02x05_Odd_Even J1
U 1 1 5B3B8FD5
P 1500 1200
F 0 "J1" H 1550 1617 50  0000 C CNN
F 1 "Argument_A" H 1550 1526 50  0000 C CNN
F 2 "Connector_PinHeader_2.54mm:PinHeader_2x05_P2.54mm_Vertical" H 1500 1200 50  0001 C CNN
F 3 "~" H 1500 1200 50  0001 C CNN
	1    1500 1200
	1    0    0    -1  
$EndComp
Text GLabel 1300 1000 0    50   Input ~ 0
VCC
Text GLabel 1800 1000 2    50   Input ~ 0
GND
Text Label 1300 1100 2    50   ~ 0
A0
Text Label 1800 1100 0    50   ~ 0
A1
Text Label 1300 1200 2    50   ~ 0
A2
Text Label 1800 1200 0    50   ~ 0
A3
Text Label 1300 1300 2    50   ~ 0
A4
Text Label 1800 1300 0    50   ~ 0
A5
Text Label 1300 1400 2    50   ~ 0
A6
Text Label 1800 1400 0    50   ~ 0
A7
$Comp
L Connector_Generic:Conn_02x05_Odd_Even J3
U 1 1 5B3B92A5
P 2950 1200
F 0 "J3" H 3000 1617 50  0000 C CNN
F 1 "Not_A" H 3000 1526 50  0000 C CNN
F 2 "Connector_PinHeader_2.54mm:PinHeader_2x05_P2.54mm_Vertical" H 2950 1200 50  0001 C CNN
F 3 "~" H 2950 1200 50  0001 C CNN
	1    2950 1200
	1    0    0    -1  
$EndComp
Text GLabel 2750 1000 0    50   Input ~ 0
VCC
Text GLabel 3250 1000 2    50   Input ~ 0
GND
Text Label 2750 1100 2    50   ~ 0
-A0
Text Label 3250 1100 0    50   ~ 0
-A1
Text Label 2750 1200 2    50   ~ 0
-A2
Text Label 3250 1200 0    50   ~ 0
-A3
Text Label 2750 1300 2    50   ~ 0
-A4
Text Label 3250 1300 0    50   ~ 0
-A5
Text Label 2750 1400 2    50   ~ 0
-A6
Text Label 3250 1400 0    50   ~ 0
-A7
$Comp
L 74xx:74LS04 U1
U 1 1 5B3B947C
P 6250 2050
F 0 "U1" H 6250 2367 50  0000 C CNN
F 1 "74LS04" H 6250 2276 50  0000 C CNN
F 2 "Package_DIP:DIP-14_W7.62mm" H 6250 2050 50  0001 C CNN
F 3 "http://www.ti.com/lit/gpn/sn74LS04" H 6250 2050 50  0001 C CNN
	1    6250 2050
	1    0    0    -1  
$EndComp
$Comp
L 74xx:74LS04 U1
U 2 1 5B3B9506
P 6250 1850
F 0 "U1" H 6250 2167 50  0000 C CNN
F 1 "74LS04" H 6250 2076 50  0000 C CNN
F 2 "Package_DIP:DIP-14_W7.62mm" H 6250 1850 50  0001 C CNN
F 3 "http://www.ti.com/lit/gpn/sn74LS04" H 6250 1850 50  0001 C CNN
	2    6250 1850
	1    0    0    -1  
$EndComp
$Comp
L 74xx:74LS04 U1
U 3 1 5B3B955D
P 6250 1650
F 0 "U1" H 6250 1967 50  0000 C CNN
F 1 "74LS04" H 6250 1876 50  0000 C CNN
F 2 "Package_DIP:DIP-14_W7.62mm" H 6250 1650 50  0001 C CNN
F 3 "http://www.ti.com/lit/gpn/sn74LS04" H 6250 1650 50  0001 C CNN
	3    6250 1650
	1    0    0    -1  
$EndComp
$Comp
L 74xx:74LS04 U1
U 4 1 5B3B95C7
P 6250 1450
F 0 "U1" H 6250 1767 50  0000 C CNN
F 1 "74LS04" H 6250 1676 50  0000 C CNN
F 2 "Package_DIP:DIP-14_W7.62mm" H 6250 1450 50  0001 C CNN
F 3 "http://www.ti.com/lit/gpn/sn74LS04" H 6250 1450 50  0001 C CNN
	4    6250 1450
	1    0    0    -1  
$EndComp
$Comp
L 74xx:74LS04 U1
U 5 1 5B3B961A
P 6250 1250
F 0 "U1" H 6250 1567 50  0000 C CNN
F 1 "74LS04" H 6250 1476 50  0000 C CNN
F 2 "Package_DIP:DIP-14_W7.62mm" H 6250 1250 50  0001 C CNN
F 3 "http://www.ti.com/lit/gpn/sn74LS04" H 6250 1250 50  0001 C CNN
	5    6250 1250
	1    0    0    -1  
$EndComp
$Comp
L 74xx:74LS04 U1
U 6 1 5B3B9674
P 6250 1050
F 0 "U1" H 6250 1367 50  0000 C CNN
F 1 "74LS04" H 6250 1276 50  0000 C CNN
F 2 "Package_DIP:DIP-14_W7.62mm" H 6250 1050 50  0001 C CNN
F 3 "http://www.ti.com/lit/gpn/sn74LS04" H 6250 1050 50  0001 C CNN
	6    6250 1050
	1    0    0    -1  
$EndComp
$Comp
L 74xx:74LS04 U1
U 7 1 5B3B96F5
P 1000 3550
F 0 "U1" H 1230 3596 50  0000 L CNN
F 1 "74LS04" H 1230 3505 50  0000 L CNN
F 2 "Package_DIP:DIP-14_W7.62mm" H 1000 3550 50  0001 C CNN
F 3 "http://www.ti.com/lit/gpn/sn74LS04" H 1000 3550 50  0001 C CNN
	7    1000 3550
	1    0    0    -1  
$EndComp
$Comp
L 74xx:74LS04 U2
U 1 1 5B3B9797
P 6250 3350
F 0 "U2" H 6250 3667 50  0000 C CNN
F 1 "74LS04" H 6250 3576 50  0000 C CNN
F 2 "Package_DIP:DIP-14_W7.62mm" H 6250 3350 50  0001 C CNN
F 3 "http://www.ti.com/lit/gpn/sn74LS04" H 6250 3350 50  0001 C CNN
	1    6250 3350
	1    0    0    -1  
$EndComp
$Comp
L 74xx:74LS04 U2
U 2 1 5B3B9804
P 6250 3550
F 0 "U2" H 6250 3867 50  0000 C CNN
F 1 "74LS04" H 6250 3776 50  0000 C CNN
F 2 "Package_DIP:DIP-14_W7.62mm" H 6250 3550 50  0001 C CNN
F 3 "http://www.ti.com/lit/gpn/sn74LS04" H 6250 3550 50  0001 C CNN
	2    6250 3550
	1    0    0    -1  
$EndComp
$Comp
L 74xx:74LS04 U2
U 3 1 5B3B9870
P 6250 2950
F 0 "U2" H 6250 3267 50  0000 C CNN
F 1 "74LS04" H 6250 3176 50  0000 C CNN
F 2 "Package_DIP:DIP-14_W7.62mm" H 6250 2950 50  0001 C CNN
F 3 "http://www.ti.com/lit/gpn/sn74LS04" H 6250 2950 50  0001 C CNN
	3    6250 2950
	1    0    0    -1  
$EndComp
$Comp
L 74xx:74LS04 U2
U 4 1 5B3B9913
P 6250 3150
F 0 "U2" H 6250 3467 50  0000 C CNN
F 1 "74LS04" H 6250 3376 50  0000 C CNN
F 2 "Package_DIP:DIP-14_W7.62mm" H 6250 3150 50  0001 C CNN
F 3 "http://www.ti.com/lit/gpn/sn74LS04" H 6250 3150 50  0001 C CNN
	4    6250 3150
	1    0    0    -1  
$EndComp
$Comp
L 74xx:74LS04 U2
U 5 1 5B3B999F
P 6250 2450
F 0 "U2" H 6250 2767 50  0000 C CNN
F 1 "74LS04" H 6250 2676 50  0000 C CNN
F 2 "Package_DIP:DIP-14_W7.62mm" H 6250 2450 50  0001 C CNN
F 3 "http://www.ti.com/lit/gpn/sn74LS04" H 6250 2450 50  0001 C CNN
	5    6250 2450
	1    0    0    -1  
$EndComp
$Comp
L 74xx:74LS04 U2
U 6 1 5B3B9A26
P 6250 2250
F 0 "U2" H 6250 2567 50  0000 C CNN
F 1 "74LS04" H 6250 2476 50  0000 C CNN
F 2 "Package_DIP:DIP-14_W7.62mm" H 6250 2250 50  0001 C CNN
F 3 "http://www.ti.com/lit/gpn/sn74LS04" H 6250 2250 50  0001 C CNN
	6    6250 2250
	1    0    0    -1  
$EndComp
$Comp
L 74xx:74LS04 U2
U 7 1 5B3B9AB4
P 1450 3550
F 0 "U2" H 1680 3596 50  0000 L CNN
F 1 "74LS04" H 1680 3505 50  0000 L CNN
F 2 "Package_DIP:DIP-14_W7.62mm" H 1450 3550 50  0001 C CNN
F 3 "http://www.ti.com/lit/gpn/sn74LS04" H 1450 3550 50  0001 C CNN
	7    1450 3550
	1    0    0    -1  
$EndComp
Text Label 5950 1050 2    50   ~ 0
A0
Text Label 5950 1250 2    50   ~ 0
A1
Text Label 5950 1450 2    50   ~ 0
A2
Text Label 5950 1650 2    50   ~ 0
A3
Text Label 5950 1850 2    50   ~ 0
A4
Text Label 5950 2050 2    50   ~ 0
A5
Text Label 5950 2250 2    50   ~ 0
A6
Text Label 5950 2450 2    50   ~ 0
A7
Text Label 6550 1050 0    50   ~ 0
-A0
Text Label 6550 1250 0    50   ~ 0
-A1
Text Label 6550 1450 0    50   ~ 0
-A2
Text Label 6550 1650 0    50   ~ 0
-A3
Text Label 6550 1850 0    50   ~ 0
-A4
Text Label 6550 2050 0    50   ~ 0
-A5
Text Label 6550 2250 0    50   ~ 0
-A6
Text Label 6550 2450 0    50   ~ 0
-A7
Wire Wire Line
	1000 3050 1450 3050
Wire Wire Line
	1000 4050 1450 4050
$Comp
L power:GND #PWR0101
U 1 1 5B3BC05B
P 1000 4050
F 0 "#PWR0101" H 1000 3800 50  0001 C CNN
F 1 "GND" H 1005 3877 50  0000 C CNN
F 2 "" H 1000 4050 50  0001 C CNN
F 3 "" H 1000 4050 50  0001 C CNN
	1    1000 4050
	1    0    0    -1  
$EndComp
Connection ~ 1000 4050
$Comp
L power:VCC #PWR0102
U 1 1 5B3BC0D8
P 1000 3050
F 0 "#PWR0102" H 1000 2900 50  0001 C CNN
F 1 "VCC" H 1017 3223 50  0000 C CNN
F 2 "" H 1000 3050 50  0001 C CNN
F 3 "" H 1000 3050 50  0001 C CNN
	1    1000 3050
	1    0    0    -1  
$EndComp
Connection ~ 1000 3050
$Comp
L power:VCC #PWR0103
U 1 1 5B3BC14E
P 1000 4750
F 0 "#PWR0103" H 1000 4600 50  0001 C CNN
F 1 "VCC" H 1017 4923 50  0000 C CNN
F 2 "" H 1000 4750 50  0001 C CNN
F 3 "" H 1000 4750 50  0001 C CNN
	1    1000 4750
	1    0    0    -1  
$EndComp
$Comp
L power:GND #PWR0104
U 1 1 5B3BC1CB
P 1400 4750
F 0 "#PWR0104" H 1400 4500 50  0001 C CNN
F 1 "GND" H 1405 4577 50  0000 C CNN
F 2 "" H 1400 4750 50  0001 C CNN
F 3 "" H 1400 4750 50  0001 C CNN
	1    1400 4750
	1    0    0    -1  
$EndComp
$Comp
L power:PWR_FLAG #FLG0101
U 1 1 5B3BC248
P 1400 4750
F 0 "#FLG0101" H 1400 4825 50  0001 C CNN
F 1 "PWR_FLAG" H 1400 4924 50  0000 C CNN
F 2 "" H 1400 4750 50  0001 C CNN
F 3 "~" H 1400 4750 50  0001 C CNN
	1    1400 4750
	1    0    0    -1  
$EndComp
$Comp
L power:PWR_FLAG #FLG0102
U 1 1 5B3BC2BE
P 1000 4750
F 0 "#FLG0102" H 1000 4825 50  0001 C CNN
F 1 "PWR_FLAG" H 1000 4923 50  0000 C CNN
F 2 "" H 1000 4750 50  0001 C CNN
F 3 "~" H 1000 4750 50  0001 C CNN
	1    1000 4750
	-1   0    0    1   
$EndComp
Text GLabel 1000 4750 0    50   Input ~ 0
VCC
Text GLabel 1400 4750 2    50   Input ~ 0
GND
NoConn ~ 5950 2950
NoConn ~ 5950 3150
NoConn ~ 5950 3350
NoConn ~ 5950 3550
NoConn ~ 6550 3550
NoConn ~ 6550 3350
NoConn ~ 6550 3150
NoConn ~ 6550 2950
$EndSCHEMATC
